Wex_Application,Fraud,WEX Application
Wex,Bankruptcy,WEX
Wex,Other,WEX
IOL,Bankruptcy,IOL
Wex_Card,Fraud,WEX Card
Partner,Fraud,PARTNER
IOL,Fraud,IOL
Partner,Bankruptcy,PARTNER
Partner,Other,PARTNER
IOL,Other,IOL