
SET SERVEROUTPUT ON
SET ECHO ON
SET TIMING ON
DEFINE &&env = &1

SPOOL /i1/&&env/hub/logs/SRC_DW_STG_PURCH_TRANS.tbl.log ; 

DROP TABLE STAGE_OWNER.SRC_DW_STG_PURCH_TRANS CASCADE CONSTRAINTS;

CREATE TABLE STAGE_OWNER.SRC_DW_STG_PURCH_TRANS
(
  DW_CYCLE_CALENDAR_KEY           NUMBER(15),
  DW_TTA_AGRMNT_KEY               NUMBER(15),
  DW_RETAIL_DISC_KEY              NUMBER(15),
  DW_TAX_KEY                      NUMBER(15),
  DW_NETWORK_KEY                  NUMBER(15),
  DW_SPNR_KEY                     NUMBER(15),
  DW_DRIVER_KEY                   NUMBER(15),
  DW_ACCT_KEY                     NUMBER(15),
  DW_PURCH_DEVICE_KEY             NUMBER(15),
  DW_SPNR_PGM_KEY                 NUMBER(15),
  DW_PRODUCT_KEY                  NUMBER(15),
  DW_ACCT_AGRMNT_KEY              NUMBER(15),
  DW_SITE_KEY                     NUMBER(15),
  DW_POST_DT_KEY                  NUMBER(15),
  DW_TRANS_DT_KEY                 NUMBER(15),
  DW_POS_KEY                      NUMBER(15),
  DW_FEE_KEY                      NUMBER(15),
  DW_CNTRCT_PRICE_KEY             NUMBER(15),
  DW_MRCH_KEY                     NUMBER(15),
  DW_MRCH_AGRMNT_KEY              NUMBER(15),
  TRANS_ITEM_SEQ_NBR              NUMBER(4),
  TRANS_BATCH_ID                  NUMBER(16),
  ACCT_PRE_STLMT_ITEM_DTL_AMT     NUMBER(20,8),
  AUTH_APPRV_CD                   VARCHAR2(6 BYTE),
  TRANS_ID                        NUMBER(16),
  SETTLE_NET_DISC_FLG             CHAR(1 BYTE),
  SETTLE_NET_TAX_FLG              CHAR(1 BYTE),
  SETTLE_NET_FEE_FLG              CHAR(1 BYTE),
  ACTION_CD                       NUMBER(10),
  AUTH_MATCH_FLG                  CHAR(1 BYTE),
  ORIG_TRANS_ID                   NUMBER(16),
  LOCAL_TRANS_DT                  DATE,
  NETWORK_POS_NBR                 VARCHAR2(30 BYTE),
  SITE_TKT_NBR                    VARCHAR2(15 BYTE),
  POSTING_DT                      DATE,
  LOCAL_TRANS_TM                  VARCHAR2(10 BYTE),
  MICROFILM_NBR                   VARCHAR2(20 BYTE),
  RADIO_FREQ_ID                   VARCHAR2(99 BYTE),
  TP_PROCESS_DT                   DATE,
  INTERNAL_TRANS_FLG              CHAR(1 BYTE),
  RECEIVE_DT                      DATE,
  CAPTURE_INPUT_MODE              VARCHAR2(10 BYTE),
  PROCESSING_CD                   NUMBER(1),
  CAPTURE_DEVICE                  VARCHAR2(10 BYTE),
  SERVICE_LEVEL_CD                VARCHAR2(1 BYTE),
  TRAN_TYPE                       VARCHAR2(3 BYTE),
  ERROR_OVERRIDE_FLG              CHAR(1 BYTE),
  TRANS_TYPE_RSN_DESC             VARCHAR2(50 BYTE),
  CURR_ODOMETER_READING           NUMBER(12),
  US_PRE_STLMT_PPU_AMT            NUMBER(20,8),
  ACCT_PRE_STLMT_PPU_AMT          NUMBER(20,8),
  PRICE_USED_CD                   VARCHAR2(4 BYTE),
  SITE_PRE_STLMT_PPU_AMT          NUMBER(20,8),
  ACCT_STLMT_PPU_AMT              NUMBER(20,8),
  NBR_OF_PROD_ITEMS               NUMBER(4),
  TAX_RATE                        NUMBER(14,8),
  SITE_STLMT_PPU_AMT              NUMBER(20,8),
  TAX_EXEMPT_FLG                  CHAR(1 BYTE),
  NOT_TAX_EXEMPT_RSN              VARCHAR2(50 BYTE),
  DISC_FACTOR                     NUMBER(14,8),
  FROM_ACCT_CRCY_RATE             NUMBER(20,8),
  FROM_TERM_CRCY_RATE             NUMBER(20,8),
  DISC_CALC_MTHD                  VARCHAR2(3 BYTE),
  ACCT_STLMT_ITEM_DTL_AMT         NUMBER(20,8),
  US_PRE_STLMT_ITEM_DTL_AMT       NUMBER(20,8),
  DW_TRANS_TYPE                   VARCHAR2(20 BYTE),
  SITE_PRE_STLMT_ITEM_DTL_AMT     NUMBER(20,8),
  SITE_STLMT_ITEM_DTL_AMT         NUMBER(20,8),
  POS_PROMPT_NM_1                 VARCHAR2(50 BYTE),
  POS_PROMPT_DATA_1               VARCHAR2(50 BYTE),
  POS_PROMPT_NM_2                 VARCHAR2(50 BYTE),
  POS_PROMPT_DATA_2               VARCHAR2(50 BYTE),
  POS_PROMPT_DATA_3               VARCHAR2(50 BYTE),
  POS_PROMPT_NM_3                 VARCHAR2(50 BYTE),
  US_STLMT_ITEM_DTL_AMT           NUMBER(20,8),
  DW_CREATE_DT                    DATE,
  DW_TRANS_DTL_TYPE               VARCHAR2(100 BYTE),
  DW_LAST_UPDT_DT                 DATE,
  DW_LAST_UPDT_SESSION_NM         VARCHAR2(100 BYTE),
  DW_SOURCE_SYS                   VARCHAR2(30 BYTE),
  AUTHHDRID                       NUMBER(16),
  HIST_PROCESSED_CD               VARCHAR2(5 BYTE),
  DW_PROP_PROD_CD_KEY             NUMBER(15),
  APPLY_CCI_FLG                   CHAR(1 BYTE),
  DW_CNTRCT_PRICE_HDR_KEY         NUMBER(15),
  US_SPNR_STLMT_CP_PPU_AMT        NUMBER(20,8),
  US_SITE_STLMT_ITEM_DTL_NET_AMT  NUMBER(20,8),
  US_SITE_STLMT_ITEM_DTL_PMT_AMT  NUMBER(20,8),
  US_ACCT_STLMT_ITEM_DTL_NET_AMT  NUMBER(20,8),
  US_SPNR_STLMT_ITEM_DTL_CP_AMT   NUMBER(20,8),
  US_ACCT_STLMT_ITEM_DTL_AMT      NUMBER(20,8),
  US_SITE_STLMT_ITEM_DTL_AMT      NUMBER(20,8),
  US_FUNDER_STLMT_ITEM_DTL_AMT    NUMBER(20,8),
  SETTLE_NET_CP_ADJ_FLG           CHAR(1 BYTE),
  US_ACCT_STLMT_PPU_AMT           NUMBER(20,8),
  US_SITE_STLMT_PPU_AMT           NUMBER(20,8),
  OUT_OF_NETW_TRANS_FLG           CHAR(1 BYTE),
  DW_ASSET_KEY                    NUMBER(15),
  DW_RPT_ACCT_KEY                 NUMBER(15),
  FW_PURCH_TRANS_KEY              NUMBER(15),
  DIVERTED_FLG                    CHAR(1 BYTE),
  SITE_TRANS_GROSS_AMT            NUMBER(20,8),
  ACCT_TRANS_GROSS_AMT            NUMBER(20,8),
  US_TRANS_GROSS_AMT              NUMBER(20,8),
  SITE_STLMT_NBR_TRANS_UNTS       NUMBER(9,4),
  ACCT_STLMT_NBR_TRANS_UNTS       NUMBER(9,4),
  US_STLMT_NBR_TRANS_UNTS         NUMBER(9,4),
  SITE_PRE_STLMT_NBR_TRANS_UNTS   NUMBER(9,4),
  ACCT_PRE_STLMT_NBR_TRANS_UNTS   NUMBER(9,4),
  US_PRE_STLMT_NBR_TRANS_UNTS     NUMBER(9,4),
  SITE_STLMT_UNIT_OF_MEAS         VARCHAR2(10 BYTE),
  ACCT_STLMT_UNIT_OF_MEAS         VARCHAR2(10 BYTE),
  US_STLMT_UNIT_OF_MEAS           VARCHAR2(10 BYTE),
  SITE_STLMT_ITEM_DTL_NET_AMT     NUMBER(20,8),
  SITE_STLMT_ITEM_DTL_PMT_AMT     NUMBER(20,8),
  SITE_DISC_VOL_ACCUM_UNTS        NUMBER(20,8),
  ACCT_DISC_VOL_ACCUM_UNTS        NUMBER(20,8),
  US_DISC_VOL_ACCUM_UNTS          NUMBER(20,8),
  SITE_CURRENCY_CD                VARCHAR2(3 BYTE),
  ACCT_CURRENCY_CD                VARCHAR2(3 BYTE),
  ACCTSRCID                       VARCHAR2(50 BYTE),
  PDACCTSRCID                     VARCHAR2(50 BYTE),
  FEESRCID                        VARCHAR2(50 BYTE),
  MRCHSRCID                       VARCHAR2(50 BYTE),
  PGMSRCID                        VARCHAR2(50 BYTE),
  TERMSRCID                       VARCHAR2(50 BYTE),
  SITESRCID                       VARCHAR2(50 BYTE),
  NETWSRCID                       VARCHAR2(50 BYTE),
  FLA_PAR_ROW_ID                  VARCHAR2(15 BYTE),
  TTA_AGRMNT_ROW_ID               VARCHAR2(15 BYTE),
  MRCH_AGRMNT_ROW_ID              VARCHAR2(15 BYTE),
  SPNR_ROW_ID                     VARCHAR2(15 BYTE),
  DW_ACCT_BILL_CYCLE_KEY          NUMBER(15),
  CYCLE_CD                        VARCHAR2(2 BYTE),
  CONTPRCSRCID                    VARCHAR2(50 BYTE),
  CONTPRCPRDGRPSRCID              VARCHAR2(50 BYTE),
  PRODSRCID                       VARCHAR2(50 BYTE),
  PRICESRCID                      VARCHAR2(50 BYTE),
  PRICEPRODGRPSRCID               VARCHAR2(50 BYTE),
  PRICETIERSRCID                  VARCHAR2(50 BYTE),
  PRICETIERHEDGESRCID             VARCHAR2(50 BYTE),
  RATEBYPRODSRCID                 VARCHAR2(50 BYTE),
  LANGUAGE_CD                     VARCHAR2(30 BYTE),
  MRCH_TAX_RECV_ACCT_ID           VARCHAR2(15 BYTE),
  FED_CCI_TAX_RECV_ACCT_ID        VARCHAR2(15 BYTE),
  STATE_CCI_TAX_RECV_ACCT_ID      VARCHAR2(15 BYTE)
)
ORGANIZATION EXTERNAL
  (  TYPE ORACLE_LOADER
     DEFAULT DIRECTORY EDM_DATA_DIR
     ACCESS PARAMETERS 
       ( RECORDS DELIMITED BY NEWLINE 
    LOGFILE   EDM_LOG_DIR:'src_dw_stg_purch_trans.log'    
    BADFILE      EDM_LOG_DIR:'src_dw_stg_purch_trans.bad' 
    DISCARDFILE   EDM_LOG_DIR:'src_dw_stg_purch_trans.dis'
    FIELDS  TERMINATED BY '~|~'
    LRTRIM   
    MISSING FIELD VALUES ARE NULL
    REJECT ROWS WITH ALL NULL FIELDS
 ( DW_CYCLE_CALENDAR_KEY          ,
  DW_TTA_AGRMNT_KEY               ,
  DW_RETAIL_DISC_KEY              ,
  DW_TAX_KEY                      ,
  DW_NETWORK_KEY                  ,
  DW_SPNR_KEY                     ,
  DW_DRIVER_KEY                   ,
  DW_ACCT_KEY                     ,
  DW_PURCH_DEVICE_KEY             ,
  DW_SPNR_PGM_KEY                 ,
  DW_PRODUCT_KEY                  ,
  DW_ACCT_AGRMNT_KEY              ,
  DW_SITE_KEY                     ,
  DW_POST_DT_KEY                  ,
  DW_TRANS_DT_KEY                 ,
  DW_POS_KEY                      ,
  DW_FEE_KEY                      ,
  DW_CNTRCT_PRICE_KEY             ,
  DW_MRCH_KEY                     ,
  DW_MRCH_AGRMNT_KEY              ,
  TRANS_ITEM_SEQ_NBR              ,
  TRANS_BATCH_ID                  ,
  ACCT_PRE_STLMT_ITEM_DTL_AMT     ,
  AUTH_APPRV_CD                   ,
  TRANS_ID                        ,
  SETTLE_NET_DISC_FLG             ,
  SETTLE_NET_TAX_FLG              ,
  SETTLE_NET_FEE_FLG              ,
  ACTION_CD                       ,
  AUTH_MATCH_FLG                  ,
  ORIG_TRANS_ID                   ,
  LOCAL_TRANS_DT                  CHAR  date_format DATE mask "MM/DD/YYYY hh24:mi:ss" NULLIF  LOCAL_TRANS_DT  = BLANKS ,
  NETWORK_POS_NBR                 ,
  SITE_TKT_NBR                    ,
  POSTING_DT                      CHAR  date_format DATE mask "MM/DD/YYYY hh24:mi:ss" NULLIF  POSTING_DT  = BLANKS ,
  LOCAL_TRANS_TM                  ,
  MICROFILM_NBR                   ,
  RADIO_FREQ_ID                   ,
  TP_PROCESS_DT                   CHAR  date_format DATE mask "MM/DD/YYYY hh24:mi:ss" NULLIF  TP_PROCESS_DT  = BLANKS ,
  INTERNAL_TRANS_FLG              ,
  RECEIVE_DT                      CHAR  date_format DATE mask "MM/DD/YYYY hh24:mi:ss" NULLIF  RECEIVE_DT  = BLANKS ,
  CAPTURE_INPUT_MODE              ,
  PROCESSING_CD                   ,
  CAPTURE_DEVICE                  ,
  SERVICE_LEVEL_CD                ,
  TRAN_TYPE                       ,
  ERROR_OVERRIDE_FLG              ,
  TRANS_TYPE_RSN_DESC             ,
  CURR_ODOMETER_READING           ,
  US_PRE_STLMT_PPU_AMT            ,
  ACCT_PRE_STLMT_PPU_AMT          ,
  PRICE_USED_CD                   ,
  SITE_PRE_STLMT_PPU_AMT          ,
  ACCT_STLMT_PPU_AMT              ,
  NBR_OF_PROD_ITEMS               ,
  TAX_RATE                        ,
  SITE_STLMT_PPU_AMT              ,
  TAX_EXEMPT_FLG                  ,
  NOT_TAX_EXEMPT_RSN              ,
  DISC_FACTOR                     ,
  FROM_ACCT_CRCY_RATE             ,
  FROM_TERM_CRCY_RATE             ,
  DISC_CALC_MTHD                  ,
  ACCT_STLMT_ITEM_DTL_AMT         ,
  US_PRE_STLMT_ITEM_DTL_AMT       ,
  DW_TRANS_TYPE                   ,
  SITE_PRE_STLMT_ITEM_DTL_AMT     ,
  SITE_STLMT_ITEM_DTL_AMT         ,
  POS_PROMPT_NM_1                 ,
  POS_PROMPT_DATA_1               ,
  POS_PROMPT_NM_2                 ,
  POS_PROMPT_DATA_2               ,
  POS_PROMPT_DATA_3               ,
  POS_PROMPT_NM_3                 ,
  US_STLMT_ITEM_DTL_AMT           ,
  DW_CREATE_DT                    CHAR  date_format DATE mask "MM/DD/YYYY hh24:mi:ss" NULLIF  DW_CREATE_DT  = BLANKS ,
  DW_TRANS_DTL_TYPE               ,
  DW_LAST_UPDT_DT                 CHAR  date_format DATE mask "MM/DD/YYYY hh24:mi:ss" NULLIF  DW_LAST_UPDT_DT  = BLANKS ,
  DW_LAST_UPDT_SESSION_NM         ,
  DW_SOURCE_SYS                   ,
  AUTHHDRID                       ,
  HIST_PROCESSED_CD               ,
  DW_PROP_PROD_CD_KEY             ,
  APPLY_CCI_FLG                   ,
  DW_CNTRCT_PRICE_HDR_KEY         ,
  US_SPNR_STLMT_CP_PPU_AMT        ,
  US_SITE_STLMT_ITEM_DTL_NET_AMT  ,
  US_SITE_STLMT_ITEM_DTL_PMT_AMT  ,
  US_ACCT_STLMT_ITEM_DTL_NET_AMT  ,
  US_SPNR_STLMT_ITEM_DTL_CP_AMT   ,
  US_ACCT_STLMT_ITEM_DTL_AMT      ,
  US_SITE_STLMT_ITEM_DTL_AMT      ,
  US_FUNDER_STLMT_ITEM_DTL_AMT    ,
  SETTLE_NET_CP_ADJ_FLG           ,
  US_ACCT_STLMT_PPU_AMT           ,
  US_SITE_STLMT_PPU_AMT           ,
  OUT_OF_NETW_TRANS_FLG           ,
  DW_ASSET_KEY                    ,
  DW_RPT_ACCT_KEY                 ,
  FW_PURCH_TRANS_KEY              ,
  DIVERTED_FLG                    ,
  SITE_TRANS_GROSS_AMT            ,
  ACCT_TRANS_GROSS_AMT            ,
  US_TRANS_GROSS_AMT              ,
  SITE_STLMT_NBR_TRANS_UNTS       ,
  ACCT_STLMT_NBR_TRANS_UNTS       ,
  US_STLMT_NBR_TRANS_UNTS         ,
  SITE_PRE_STLMT_NBR_TRANS_UNTS   ,
  ACCT_PRE_STLMT_NBR_TRANS_UNTS   ,
  US_PRE_STLMT_NBR_TRANS_UNTS     ,
  SITE_STLMT_UNIT_OF_MEAS         ,
  ACCT_STLMT_UNIT_OF_MEAS         ,
  US_STLMT_UNIT_OF_MEAS           ,
  SITE_STLMT_ITEM_DTL_NET_AMT     ,
  SITE_STLMT_ITEM_DTL_PMT_AMT     ,
  SITE_DISC_VOL_ACCUM_UNTS        ,
  ACCT_DISC_VOL_ACCUM_UNTS        ,
  US_DISC_VOL_ACCUM_UNTS          ,
  SITE_CURRENCY_CD                ,
  ACCT_CURRENCY_CD                ,
  ACCTSRCID                       ,
  PDACCTSRCID                     ,
  FEESRCID                        ,
  MRCHSRCID                       ,
  PGMSRCID                        ,
  TERMSRCID                       ,
  SITESRCID                       ,
  NETWSRCID                       ,
  FLA_PAR_ROW_ID                  ,
  TTA_AGRMNT_ROW_ID               ,
  MRCH_AGRMNT_ROW_ID              ,
  SPNR_ROW_ID                     ,
  DW_ACCT_BILL_CYCLE_KEY          ,
  CYCLE_CD                        ,
  CONTPRCSRCID                    ,
  CONTPRCPRDGRPSRCID              ,
  PRODSRCID                       ,
  PRICESRCID                      ,
  PRICEPRODGRPSRCID               ,
  PRICETIERSRCID                  ,
  PRICETIERHEDGESRCID             ,
  RATEBYPRODSRCID                 ,
  LANGUAGE_CD                     ,
  MRCH_TAX_RECV_ACCT_ID           ,
  FED_CCI_TAX_RECV_ACCT_ID        ,
  STATE_CCI_TAX_RECV_ACCT_ID      
  )                  )
     LOCATION (EDM_DATA_DIR:'src_dw_stg_purch_trans.dat')
  )
REJECT LIMIT 0
PARALLEL ( DEGREE 4 INSTANCES 1 )
NOMONITORING;

GRANT ALTER, SELECT ON SRC_DW_STG_PURCH_TRANS TO DWLOADER;

GRANT ALTER, SELECT ON SRC_DW_STG_PURCH_TRANS TO EDM_OWNER;

GRANT ALTER, SELECT ON SRC_DW_STG_PURCH_TRANS TO STAGE_OWNER_SELECT;

SPOOL OFF ; 