COUNT(*)|DATE_KEY|MONTH_YEAR_ABBR
350707|10258|2008-01
352624|10287|2008-02
372201|10318|2008-03
356672|10348|2008-04
364446|10379|2008-05
379643|10409|2008-06
358600|10440|2008-07
363719|10471|2008-08
355824|10501|2008-09
354984|10532|2008-10
306483|10562|2008-11
343139|10593|2008-12
343737|10624|2009-01
344209|10652|2009-02
355645|10683|2009-03
347149|10713|2009-04
356081|10744|2009-05
358600|10774|2009-06
359601|10805|2009-07
376810|10836|2009-08
358241|10866|2009-09
344065|10897|2009-10
348358|10927|2009-11
334894|10958|2009-12
349751|10989|2010-01
344152|11017|2010-02
349521|11048|2010-03
355052|11078|2010-04
378617|11109|2010-05
361781|11139|2010-06
363639|11170|2010-07
373409|11201|2010-08
366724|11231|2010-09
380392|11262|2010-10
415566|11292|2010-11
400196|11323|2010-12
436877|11354|2011-01
431353|11382|2011-02
420604|11413|2011-03
422070|11443|2011-04
401822|11474|2011-05
636162|11504|2011-06
497418|11535|2011-07
428715|11566|2011-08
426389|11596|2011-09
490405|11627|2011-10
409391|11657|2011-11
418223|11688|2011-12
441830|11719|2012-01
429125|11748|2012-02
430615|11779|2012-03
461460|11809|2012-04
455724|11840|2012-05
443850|11870|2012-06
449626|11901|2012-07
448685|11932|2012-08
441150|11962|2012-09
691345|11993|2012-10
680005|12023|2012-11
472338|12054|2012-12
450306|12085|2013-01
463200|12113|2013-02
458417|12144|2013-03
480039|12174|2013-04
478787|12205|2013-05
478336|12235|2013-06
476216|12266|2013-07
487047|12297|2013-08
562071|12327|2013-09
501439|12358|2013-10
436483|12388|2013-11
285330|12419|2013-12
