SET SERVEROUTPUT ON
SET ECHO ON
SET TIMING ON

SPOOL  /i1/&&env/hub/logs/F_DAILY_REVENUE_SNAPSHOT.tbl.log;


ALTER TABLE EDW_OWNER.F_DAILY_REVENUE_SNAPSHOT
 DROP PRIMARY KEY CASCADE;

DROP TABLE EDW_OWNER.F_DAILY_REVENUE_SNAPSHOT CASCADE CONSTRAINTS;

CREATE TABLE EDW_OWNER.F_DAILY_REVENUE_SNAPSHOT
(
  DAILY_REVENUE_SNAPSHOT_KEY      NUMBER(38)    NOT NULL,
  ACCOUNT_KEY                     NUMBER(38)    NOT NULL,
  PROGRAM_KEY                     NUMBER(38)    NOT NULL,
  POSTING_DATE_KEY                NUMBER(38)    NOT NULL,
  REVENUE_DATE_KEY                NUMBER(38)    NOT NULL,
  ACCOUNT_REGION_KEY              NUMBER(38)    NOT NULL,
  PURCHASE_ITEM_AMOUNT            NUMBER(15,2)  NOT NULL,
  DISCOUNT_AMOUNT                 NUMBER(15,2)  NOT NULL,
  REBATE_AMOUNT                   NUMBER(15,2)  NOT NULL,
  INTERCHANGE_RATE_ACTUAL_AMOUNT  NUMBER(15,2)  NOT NULL,
  INTCHG_TRANS_FLAT_FEE_AMT       NUMBER(15,2)  NOT NULL,
  GROSS_REVENUE_AMOUNT            NUMBER(15,2)  NOT NULL,
  TOTAL_TAX_AMOUNT                NUMBER(15,2)  NOT NULL,
  GROSS_SPEND_AMOUNT              NUMBER(15,2)  NOT NULL,
  TAX_EXEMPT_SPEND_AMOUNT         NUMBER(15,2)  NOT NULL,
  PURCHASE_GALLONS_QTY            NUMBER(15,5)  NOT NULL,
  PURCHASE_LITRES_QTY             NUMBER(15,5)  NOT NULL,
  FEDERAL_TAX_AMOUNT              NUMBER(15,2)  NOT NULL,
  STATE_TAX_AMOUNT                NUMBER(15,2)  NOT NULL,
  LOCAL_TAX_AMOUNT                NUMBER(15,2)  NOT NULL,
  COUNTY_SALES_TAX_AMOUNT         NUMBER(15,2)  NOT NULL,
  CITY_SALES_TAX_AMOUNT           NUMBER(15,2)  NOT NULL,
  COUNTY_SPECIAL_TAX_AMOUNT       NUMBER(15,2)  NOT NULL,
  STATE_EXCISE_TAX_AMOUNT         NUMBER(15,2)  NOT NULL,
  COUNTY_EXCISE_TAX_AMOUNT        NUMBER(15,2)  NOT NULL,
  FEDERAL_EXCISE_TAX_AMOUNT       NUMBER(15,2)  NOT NULL,
  STATE_SPECIAL_TAX_AMOUNT        NUMBER(15,2)  NOT NULL,
  STATE_SALES_TAX_AMOUNT          NUMBER(15,2)  NOT NULL,
  CITY_EXCISE_TAX_AMOUNT          NUMBER(15,2)  NOT NULL,
  CITY_SPECIAL_TAX_AMOUNT         NUMBER(15,2)  NOT NULL,
  INTERCHANGE_TOTAL_AMOUNT        NUMBER(15,2)  NOT NULL,
  NET_REVENUE_AMOUNT              NUMBER(15,2)  NOT NULL,
  TRANSACTION_LINE_ITEM_COUNT1    NUMBER(38)    NOT NULL,
  INTCHG_LINE_ITEM_FLAT_FEE_AMT   NUMBER(15,2)  NOT NULL,
  INTERCHANGE_PER_UNIT_FEE_AMT    NUMBER(15,2)  NOT NULL,
  LATE_FEES_AMOUNT                NUMBER(15,2)  NOT NULL,
  CARD_FEES_AMOUNT                NUMBER(15,2)  NOT NULL,
  ALL_OTHER_ANCILLARY_AMOUNT      NUMBER(15,2)  NOT NULL,
  WAIVED_REVENUE_AMOUNT           NUMBER(15,2)  NOT NULL,
  FINANCE_FEE_AMOUNT              NUMBER(15,2)  NOT NULL,
  PURCHASE_ITEM_LOCAL_AMOUNT      NUMBER(15,2)  NOT NULL,
  NON_FEDERAL_TAX_AMOUNT          NUMBER(15,2)  NOT NULL,
  FUEL_ONLY_INTERCHANGE_AMOUNT    NUMBER(15,2)  NOT NULL,
  MAINTENANCE_ONLY_INTCHG_AMOUNT  NUMBER(15,2)  NOT NULL,
  ALL_OTHER_INTERCHANGE_AMOUNT    NUMBER(15,2)  NOT NULL,
  SPEND_FUEL_ONLY_AMOUNT          NUMBER(15,2)  NOT NULL,
  SPEND_FUEL_GAS_AMOUNT           NUMBER(15,2)  NOT NULL,
  SPEND_FUEL_DIESEL_AMOUNT        NUMBER(15,2)  NOT NULL,
  SPEND_FUEL_OTHER_AMOUNT         NUMBER(15,2)  NOT NULL,
  SPEND_MAINTENANCE_AMOUNT        NUMBER(15,2)  NOT NULL,
  SPEND_OTHER_AMOUNT              NUMBER(15,2)  NOT NULL,
  SPEND_FUEL_ONLY_LOCAL_AMOUNT    NUMBER(15,2)  NOT NULL,
  SPEND_FUEL_GAS_LOCAL_AMOUNT     NUMBER(15,2)  NOT NULL,
  SPEND_FUEL_DIESEL_LOCAL_AMOUNT  NUMBER(15,2)  NOT NULL,
  SPEND_FUEL_OTHER_LOCAL_AMOUNT   NUMBER(15,2)  NOT NULL,
  SPEND_MAINTENANCE_LOCAL_AMOUNT  NUMBER(15,2)  NOT NULL,
  SPEND_OTHER_LOCAL_AMOUNT        NUMBER(15,2)  NOT NULL,
  TOTAL_TAX_LOCAL_AMOUNT          NUMBER(15,2)  NOT NULL,
  GROSS_SPEND_LOCAL_AMOUNT        NUMBER(15,2)  NOT NULL,
  TAX_EXEMPT_SPEND_LOCAL_AMOUNT   NUMBER(15,2)  NOT NULL,
  GROSS_NON_REVENUE_AMOUNT        NUMBER(15,2)  NOT NULL,
  FUEL_GAS_GALLONS_QTY            NUMBER(15,5)  NOT NULL,
  FUEL_GAS_LITRES_QTY             NUMBER(15,5)  NOT NULL,
  FUEL_DIESEL_GALLONS_QTY         NUMBER(15,5)  NOT NULL,
  FUEL_DIESEL_LITRES_QTY          NUMBER(15,5)  NOT NULL,
  FUEL_OTHER_GALLONS_QTY          NUMBER(15,5)  NOT NULL,
  FUEL_OTHER_LITRES_QTY           NUMBER(15,5)  NOT NULL,
  INTERCHANGE_FUEL_GAS_AMT        NUMBER(15,2)  NOT NULL,
  INTERCHANGE_FUEL_DIESEL_AMT     NUMBER(15,2)  NOT NULL,
  INTERCHANGE_FUEL_OTHER_AMT      NUMBER(15,2)  NOT NULL,
  ROW_CREATE_DTTM                 DATE          NOT NULL,
  ROW_LAST_MOD_DTTM               DATE          NOT NULL,
  ROW_LAST_MOD_PROC_NM            VARCHAR2(200 BYTE) NOT NULL,
  ROW_LAST_MOD_PROC_SEQ_NBR       NUMBER(38)    NOT NULL,
  PRIVATE_SITE_GALLONS_QTY        NUMBER(15,5),
  PRIVATE_SITE_LITRES_QTY         NUMBER(15,5),
  WAIVED_LATE_FEES_AMOUNT         NUMBER(15,2), 
  CONSTRAINT F_DAILY_REVENUE_SNAPSHOT_Fk2 
  FOREIGN KEY (REVENUE_DATE_KEY) 
  REFERENCES EDW_OWNER.D_DATE (DATE_KEY)
)
TABLESPACE D_BI
NOLOGGING 
CACHE
PARTITION BY  REFERENCE (  F_DAILY_REVENUE_SNAPSHOT_Fk2) 
PARALLEL ( DEGREE 4 INSTANCES DEFAULT ) ;    



CREATE BITMAP INDEX EDW_OWNER.F_DAILY_REVENUE_SNAPSHOT_UI1 ON EDW_OWNER.F_DAILY_REVENUE_SNAPSHOT
(ACCOUNT_KEY)
NOLOGGING
TABLESPACE I_BI
LOCAL 
 (  PARTITION YM_2008_01 ,  
    PARTITION YM_2008_02 ,
   PARTITION YM_2008_03  ,  
  PARTITION YM_2008_04  ,  
  PARTITION YM_2008_05 ,  
  PARTITION YM_2008_06 ,  
  PARTITION YM_2008_07 ,  
  PARTITION YM_2008_08 ,  
  PARTITION YM_2008_09 ,  
  PARTITION YM_2008_10 ,  
  PARTITION YM_2008_11 ,  
  PARTITION YM_2008_12 ,  
  PARTITION YM_2009_01 ,  
  PARTITION YM_2009_02 ,  
  PARTITION YM_2009_03 ,  
  PARTITION YM_2009_04 ,  
  PARTITION YM_2009_05 ,  
  PARTITION YM_2009_06 ,  
  PARTITION YM_2009_07 ,  
  PARTITION YM_2009_08 ,  
  PARTITION YM_2009_09 ,  
  PARTITION YM_2009_10 ,  
  PARTITION YM_2009_11 ,  
  PARTITION YM_2009_12 ,  
  PARTITION YM_2010_01 ,  
  PARTITION YM_2010_02 ,  
  PARTITION YM_2010_03 ,  
  PARTITION YM_2010_04 ,  
  PARTITION YM_2010_05 ,  
  PARTITION YM_2010_06 ,  
  PARTITION YM_2010_07 ,  
  PARTITION YM_2010_08 ,  
  PARTITION YM_2010_09 ,  
  PARTITION YM_2010_10 ,  
  PARTITION YM_2010_11 ,  
  PARTITION YM_2010_12 ,  
  PARTITION MAX_VALUE
) ; 


CREATE BITMAP INDEX EDW_OWNER.F_DAILY_REVENUE_SNAPSHOT_UI2 ON EDW_OWNER.F_DAILY_REVENUE_SNAPSHOT
(PROGRAM_KEY)
NOLOGGING
TABLESPACE I_BI
LOCAL 
 (  PARTITION YM_2008_01 ,  
    PARTITION YM_2008_02 ,
   PARTITION YM_2008_03  ,  
  PARTITION YM_2008_04  ,  
  PARTITION YM_2008_05 ,  
  PARTITION YM_2008_06 ,  
  PARTITION YM_2008_07 ,  
  PARTITION YM_2008_08 ,  
  PARTITION YM_2008_09 ,  
  PARTITION YM_2008_10 ,  
  PARTITION YM_2008_11 ,  
  PARTITION YM_2008_12 ,  
  PARTITION YM_2009_01 ,  
  PARTITION YM_2009_02 ,  
  PARTITION YM_2009_03 ,  
  PARTITION YM_2009_04 ,  
  PARTITION YM_2009_05 ,  
  PARTITION YM_2009_06 ,  
  PARTITION YM_2009_07 ,  
  PARTITION YM_2009_08 ,  
  PARTITION YM_2009_09 ,  
  PARTITION YM_2009_10 ,  
  PARTITION YM_2009_11 ,  
  PARTITION YM_2009_12 ,  
  PARTITION YM_2010_01 ,  
  PARTITION YM_2010_02 ,  
  PARTITION YM_2010_03 ,  
  PARTITION YM_2010_04 ,  
  PARTITION YM_2010_05 ,  
  PARTITION YM_2010_06 ,  
  PARTITION YM_2010_07 ,  
  PARTITION YM_2010_08 ,  
  PARTITION YM_2010_09 ,  
  PARTITION YM_2010_10 ,  
  PARTITION YM_2010_11 ,  
  PARTITION YM_2010_12 ,  
  PARTITION MAX_VALUE
) ; 

CREATE BITMAP INDEX EDW_OWNER.F_DAILY_REVENUE_SNAPSHOT_UI3 ON EDW_OWNER.F_DAILY_REVENUE_SNAPSHOT
(POSTING_DATE_KEY)
NOLOGGING
TABLESPACE I_BI
LOCAL 
 (  PARTITION YM_2008_01 ,  
    PARTITION YM_2008_02 ,
   PARTITION YM_2008_03  ,  
  PARTITION YM_2008_04  ,  
  PARTITION YM_2008_05 ,  
  PARTITION YM_2008_06 ,  
  PARTITION YM_2008_07 ,  
  PARTITION YM_2008_08 ,  
  PARTITION YM_2008_09 ,  
  PARTITION YM_2008_10 ,  
  PARTITION YM_2008_11 ,  
  PARTITION YM_2008_12 ,  
  PARTITION YM_2009_01 ,  
  PARTITION YM_2009_02 ,  
  PARTITION YM_2009_03 ,  
  PARTITION YM_2009_04 ,  
  PARTITION YM_2009_05 ,  
  PARTITION YM_2009_06 ,  
  PARTITION YM_2009_07 ,  
  PARTITION YM_2009_08 ,  
  PARTITION YM_2009_09 ,  
  PARTITION YM_2009_10 ,  
  PARTITION YM_2009_11 ,  
  PARTITION YM_2009_12 ,  
  PARTITION YM_2010_01 ,  
  PARTITION YM_2010_02 ,  
  PARTITION YM_2010_03 ,  
  PARTITION YM_2010_04 ,  
  PARTITION YM_2010_05 ,  
  PARTITION YM_2010_06 ,  
  PARTITION YM_2010_07 ,  
  PARTITION YM_2010_08 ,  
  PARTITION YM_2010_09 ,  
  PARTITION YM_2010_10 ,  
  PARTITION YM_2010_11 ,  
  PARTITION YM_2010_12 ,  
  PARTITION MAX_VALUE
) ; 

CREATE BITMAP INDEX EDW_OWNER.F_DAILY_REVENUE_SNAPSHOT_UI4 ON EDW_OWNER.F_DAILY_REVENUE_SNAPSHOT
(REVENUE_DATE_KEY)
NOLOGGING
TABLESPACE I_BI
LOCAL 
 (  PARTITION YM_2008_01 ,  
    PARTITION YM_2008_02 ,
   PARTITION YM_2008_03  ,  
  PARTITION YM_2008_04  ,  
  PARTITION YM_2008_05 ,  
  PARTITION YM_2008_06 ,  
  PARTITION YM_2008_07 ,  
  PARTITION YM_2008_08 ,  
  PARTITION YM_2008_09 ,  
  PARTITION YM_2008_10 ,  
  PARTITION YM_2008_11 ,  
  PARTITION YM_2008_12 ,  
  PARTITION YM_2009_01 ,  
  PARTITION YM_2009_02 ,  
  PARTITION YM_2009_03 ,  
  PARTITION YM_2009_04 ,  
  PARTITION YM_2009_05 ,  
  PARTITION YM_2009_06 ,  
  PARTITION YM_2009_07 ,  
  PARTITION YM_2009_08 ,  
  PARTITION YM_2009_09 ,  
  PARTITION YM_2009_10 ,  
  PARTITION YM_2009_11 ,  
  PARTITION YM_2009_12 ,  
  PARTITION YM_2010_01 ,  
  PARTITION YM_2010_02 ,  
  PARTITION YM_2010_03 ,  
  PARTITION YM_2010_04 ,  
  PARTITION YM_2010_05 ,  
  PARTITION YM_2010_06 ,  
  PARTITION YM_2010_07 ,  
  PARTITION YM_2010_08 ,  
  PARTITION YM_2010_09 ,  
  PARTITION YM_2010_10 ,  
  PARTITION YM_2010_11 ,  
  PARTITION YM_2010_12 ,  
  PARTITION MAX_VALUE
) ; 


CREATE BITMAP INDEX EDW_OWNER.F_DAILY_REVENUE_SNAPSHOT_UI5 ON EDW_OWNER.F_DAILY_REVENUE_SNAPSHOT
(ACCOUNT_REGION_KEY)
NOLOGGING
TABLESPACE I_BI
LOCAL 
 (  PARTITION YM_2008_01 ,  
    PARTITION YM_2008_02 ,
   PARTITION YM_2008_03  ,  
  PARTITION YM_2008_04  ,  
  PARTITION YM_2008_05 ,  
  PARTITION YM_2008_06 ,  
  PARTITION YM_2008_07 ,  
  PARTITION YM_2008_08 ,  
  PARTITION YM_2008_09 ,  
  PARTITION YM_2008_10 ,  
  PARTITION YM_2008_11 ,  
  PARTITION YM_2008_12 ,  
  PARTITION YM_2009_01 ,  
  PARTITION YM_2009_02 ,  
  PARTITION YM_2009_03 ,  
  PARTITION YM_2009_04 ,  
  PARTITION YM_2009_05 ,  
  PARTITION YM_2009_06 ,  
  PARTITION YM_2009_07 ,  
  PARTITION YM_2009_08 ,  
  PARTITION YM_2009_09 ,  
  PARTITION YM_2009_10 ,  
  PARTITION YM_2009_11 ,  
  PARTITION YM_2009_12 ,  
  PARTITION YM_2010_01 ,  
  PARTITION YM_2010_02 ,  
  PARTITION YM_2010_03 ,  
  PARTITION YM_2010_04 ,  
  PARTITION YM_2010_05 ,  
  PARTITION YM_2010_06 ,  
  PARTITION YM_2010_07 ,  
  PARTITION YM_2010_08 ,  
  PARTITION YM_2010_09 ,  
  PARTITION YM_2010_10 ,  
  PARTITION YM_2010_11 ,  
  PARTITION YM_2010_12 ,  
  PARTITION MAX_VALUE
) ; 

CREATE UNIQUE INDEX EDW_OWNER.XPKF_DAILY_REVENUE_SNAPSHOT ON EDW_OWNER.F_DAILY_REVENUE_SNAPSHOT
(DAILY_REVENUE_SNAPSHOT_KEY)
NOLOGGING
TABLESPACE I_BI
GLOBAL ; 

ALTER TABLE EDW_OWNER.F_DAILY_REVENUE_SNAPSHOT ADD (
  CONSTRAINT XPKF_DAILY_REVENUE_SNAPSHOT
  PRIMARY KEY
  (DAILY_REVENUE_SNAPSHOT_KEY)
  USING INDEX EDW_OWNER.XPKF_DAILY_REVENUE_SNAPSHOT);

ALTER TABLE EDW_OWNER.F_DAILY_REVENUE_SNAPSHOT ADD (
  CONSTRAINT R_101 
  FOREIGN KEY (PROGRAM_KEY) 
  REFERENCES EDW_OWNER.D_PROGRAM (PROGRAM_KEY)
  ON DELETE SET NULL,
  CONSTRAINT R_102 
  FOREIGN KEY (ACCOUNT_REGION_KEY) 
  REFERENCES EDW_OWNER.D_REGION (REGION_KEY),
  CONSTRAINT R_97 
  FOREIGN KEY (ACCOUNT_KEY) 
  REFERENCES EDW_OWNER.D_ACCOUNT (ACCOUNT_KEY),
  CONSTRAINT R_98 
  FOREIGN KEY (POSTING_DATE_KEY) 
  REFERENCES EDW_OWNER.D_DATE (DATE_KEY));
  
DROP PUBLIC SYNONYM F_DAILY_REVENUE_SNAPSHOT;

CREATE PUBLIC SYNONYM F_DAILY_REVENUE_SNAPSHOT FOR EDW_OWNER.F_DAILY_REVENUE_SNAPSHOT;

GRANT SELECT ON EDW_OWNER.F_DAILY_REVENUE_SNAPSHOT TO BORPTRNR;

GRANT DELETE, INSERT, SELECT, UPDATE ON EDW_OWNER.F_DAILY_REVENUE_SNAPSHOT TO DWLOADER;

GRANT SELECT ON EDW_OWNER.F_DAILY_REVENUE_SNAPSHOT TO DW_OWNER_SELECT , EDW_OWNER_SELECT ;

spool off ; 