SET SERVEROUTPUT ON
SET ECHO ON
SET TIMING ON

SPOOL  /i1/&&env/hub/logs/F_MONTHLY_REVENUE_SNAPSHOT.tbl.log  ;


ALTER TABLE EDW_OWNER.F_MONTHLY_REVENUE_SNAPSHOT
 DROP PRIMARY KEY CASCADE;

DROP TABLE EDW_OWNER.F_MONTHLY_REVENUE_SNAPSHOT CASCADE CONSTRAINTS;

CREATE TABLE EDW_OWNER.F_MONTHLY_REVENUE_SNAPSHOT
(
  MONTHLY_REVENUE_SNAPSHOT_KEY    NUMBER(38)    NOT NULL,
  ACCOUNT_KEY                     NUMBER(38)    NOT NULL,
  PROGRAM_KEY                     NUMBER(38)    NOT NULL,
  REVENUE_DATE_KEY                NUMBER(38)    NOT NULL,
  POSTING_DATE_KEY                NUMBER(38)    NOT NULL,
  REGION_KEY                      NUMBER(38)    NOT NULL,
  PURCHASE_ITEM_AMOUNT            NUMBER(15,2)  NOT NULL,
  TOTAL_TAX_AMOUNT                NUMBER(15,2)  NOT NULL,
  PURCHASE_GALLONS_QTY            NUMBER(15,5)  NOT NULL,
  PURCHASE_LITRES_QTY             NUMBER(15,5)  NOT NULL,
  FUEL_GAS_GALLONS_QTY            NUMBER(15,5)  NOT NULL,
  FUEL_GAS_LITRES_QTY             NUMBER(15,5)  NOT NULL,
  FUEL_DIESEL_GALLONS_QTY         NUMBER(15,5)  NOT NULL,
  FUEL_DIESEL_LITRES_QTY          NUMBER(15,5)  NOT NULL,
  FUEL_OTHER_GALLONS_QTY          NUMBER(15,5)  NOT NULL,
  FUEL_OTHER_LITRES_QTY           NUMBER(15,5)  NOT NULL,
  INTERCHANGE_RATE_ACTUAL_AMOUNT  NUMBER(15,2)  NOT NULL,
  INTCHG_TRANS_FLAT_FEE_AMT       NUMBER(15,2)  NOT NULL,
  INTCHG_LINE_ITEM_FLAT_FEE_AMT   NUMBER(15,2)  NOT NULL,
  INTERCHANGE_PER_UNIT_FEE_AMT    NUMBER(15,2)  NOT NULL,
  INTERCHANGE_TOTAL_AMOUNT        NUMBER(15,2)  NOT NULL,
  FUEL_ONLY_INTERCHANGE_AMOUNT    NUMBER(15,2)  NOT NULL,
  MAINTENANCE_ONLY_INTCHG_AMOUNT  NUMBER(15,2)  NOT NULL,
  ALL_OTHER_INTERCHANGE_AMOUNT    NUMBER(15,2)  NOT NULL,
  GROSS_REVENUE_AMOUNT            NUMBER(15,2)  NOT NULL,
  NET_REVENUE_AMOUNT              NUMBER(15,2)  NOT NULL,
  REBATE_AMOUNT                   NUMBER(15,2)  NOT NULL,
  LATE_FEES_AMOUNT                NUMBER(15,2)  NOT NULL,
  FINANCE_FEE_AMOUNT              NUMBER(15,2)  NOT NULL,
  CARD_FEES_AMOUNT                NUMBER(15,2)  NOT NULL,
  ALL_OTHER_ANCILLARY_AMOUNT      NUMBER(15,2)  NOT NULL,
  WAIVED_REVENUE_AMOUNT           NUMBER(15,2)  NOT NULL,
  GROSS_SPEND_AMOUNT              NUMBER(15,2)  NOT NULL,
  PURCHASE_ITEM_LOCAL_AMOUNT      NUMBER(15,2)  NOT NULL,
  SPEND_FUEL_ONLY_AMOUNT          NUMBER(15,2)  NOT NULL,
  SPEND_FUEL_ONLY_LOCAL_AMOUNT    NUMBER(15,2)  NOT NULL,
  SPEND_FUEL_GAS_AMOUNT           NUMBER(15,2)  NOT NULL,
  SPEND_FUEL_GAS_LOCAL_AMOUNT     NUMBER(15,2)  NOT NULL,
  SPEND_FUEL_DIESEL_AMOUNT        NUMBER(15,2)  NOT NULL,
  SPEND_FUEL_DIESEL_LOCAL_AMOUNT  NUMBER(15,2)  NOT NULL,
  SPEND_FUEL_OTHER_AMOUNT         NUMBER(15,2)  NOT NULL,
  SPEND_FUEL_OTHER_LOCAL_AMOUNT   NUMBER(15,2)  NOT NULL,
  SPEND_MAINTENANCE_AMOUNT        NUMBER(15,2)  NOT NULL,
  SPEND_MAINTENANCE_LOCAL_AMOUNT  NUMBER(15,2)  NOT NULL,
  SPEND_OTHER_AMOUNT              NUMBER(15,2)  NOT NULL,
  SPEND_OTHER_LOCAL_AMOUNT        NUMBER(15,2)  NOT NULL,
  DISCOUNT_AMOUNT                 NUMBER(15,2)  NOT NULL,
  TAX_EXEMPT_SPEND_AMOUNT         NUMBER(15,2)  NOT NULL,
  FEDERAL_TAX_AMOUNT              NUMBER(15,2)  NOT NULL,
  NON_FEDERAL_TAX_AMOUNT          NUMBER(15,2)  NOT NULL,
  STATE_TAX_AMOUNT                NUMBER(15,2)  NOT NULL,
  LOCAL_TAX_AMOUNT                NUMBER(15,2)  NOT NULL,
  FEDERAL_EXCISE_TAX_AMOUNT       NUMBER(15,2)  NOT NULL,
  STATE_SALES_TAX_AMOUNT          NUMBER(15,2)  NOT NULL,
  STATE_EXCISE_TAX_AMOUNT         NUMBER(15,2)  NOT NULL,
  STATE_SPECIAL_TAX_AMOUNT        NUMBER(15,2)  NOT NULL,
  COUNTY_SALES_TAX_AMOUNT         NUMBER(15,2)  NOT NULL,
  COUNTY_EXCISE_TAX_AMOUNT        NUMBER(15,2)  NOT NULL,
  COUNTY_SPECIAL_TAX_AMOUNT       NUMBER(15,2)  NOT NULL,
  CITY_SALES_TAX_AMOUNT           NUMBER(15,2)  NOT NULL,
  CITY_EXCISE_TAX_AMOUNT          NUMBER(15,2)  NOT NULL,
  CITY_SPECIAL_TAX_AMOUNT         NUMBER(15,2)  NOT NULL,
  TRANSACTION_LINE_ITEM_COUNT1    NUMBER(38)    NOT NULL,
  TOTAL_TAX_LOCAL_AMOUNT          NUMBER(15,2)  NOT NULL,
  GROSS_SPEND_LOCAL_AMOUNT        NUMBER(15,2)  NOT NULL,
  TAX_EXEMPT_SPEND_LOCAL_AMOUNT   NUMBER(15,2)  NOT NULL,
  GROSS_NON_REVENUE_AMOUNT        NUMBER(15,2)  NOT NULL,
  INTERCHANGE_FUEL_GAS_AMT        NUMBER(15,2)  NOT NULL,
  INTERCHANGE_FUEL_DIESEL_AMT     NUMBER(15,2)  NOT NULL,
  INTERCHANGE_FUEL_OTHER_AMT      NUMBER(15,2)  NOT NULL,
  ROW_CREATE_DTTM                 DATE          NOT NULL,
  ROW_LAST_MOD_DTTM               DATE          NOT NULL,
  ROW_LAST_MOD_PROC_NM            VARCHAR2(200 BYTE) NOT NULL,
  ROW_LAST_MOD_PROC_SEQ_NBR       NUMBER(38)    NOT NULL,
  PRIVATE_SITE_GALLONS_QTY        NUMBER(15,5),
  PRIVATE_SITE_LITRES_QTY         NUMBER(15,5),
  WAIVED_LATE_FEES_AMOUNT         NUMBER(15,2)
)
TABLESPACE D_BI
PCTUSED    0
PCTFREE    10
INITRANS   1
MAXTRANS   255
STORAGE    (
            INITIAL          64K
            NEXT             1M
            MINEXTENTS       1
            MAXEXTENTS       UNLIMITED
            PCTINCREASE      0
            BUFFER_POOL      DEFAULT
           )
NOLOGGING 
NOCOMPRESS 
CACHE
PARALLEL ( DEGREE 4 INSTANCES DEFAULT )
MONITORING;


CREATE BITMAP INDEX EDW_OWNER.F_MONTHLY_REVENUE_SNAPSHOT_UI1 ON EDW_OWNER.F_MONTHLY_REVENUE_SNAPSHOT
(ACCOUNT_KEY)
NOLOGGING
TABLESPACE I_BI
PCTFREE    10
INITRANS   2
MAXTRANS   255
STORAGE    (
            INITIAL          64K
            NEXT             1M
            MINEXTENTS       1
            MAXEXTENTS       UNLIMITED
            PCTINCREASE      0
            BUFFER_POOL      DEFAULT
           )
NOPARALLEL;


CREATE BITMAP INDEX EDW_OWNER.F_MONTHLY_REVENUE_SNAPSHOT_UI2 ON EDW_OWNER.F_MONTHLY_REVENUE_SNAPSHOT
(PROGRAM_KEY)
NOLOGGING
TABLESPACE I_BI
PCTFREE    10
INITRANS   2
MAXTRANS   255
STORAGE    (
            INITIAL          64K
            NEXT             1M
            MINEXTENTS       1
            MAXEXTENTS       UNLIMITED
            PCTINCREASE      0
            BUFFER_POOL      DEFAULT
           )
NOPARALLEL;


CREATE BITMAP INDEX EDW_OWNER.F_MONTHLY_REVENUE_SNAPSHOT_UI3 ON EDW_OWNER.F_MONTHLY_REVENUE_SNAPSHOT
(POSTING_DATE_KEY)
NOLOGGING
TABLESPACE I_BI
PCTFREE    10
INITRANS   2
MAXTRANS   255
STORAGE    (
            INITIAL          64K
            NEXT             1M
            MINEXTENTS       1
            MAXEXTENTS       UNLIMITED
            PCTINCREASE      0
            BUFFER_POOL      DEFAULT
           )
NOPARALLEL;


CREATE BITMAP INDEX EDW_OWNER.F_MONTHLY_REVENUE_SNAPSHOT_UI4 ON EDW_OWNER.F_MONTHLY_REVENUE_SNAPSHOT
(REVENUE_DATE_KEY)
NOLOGGING
TABLESPACE I_BI
PCTFREE    10
INITRANS   2
MAXTRANS   255
STORAGE    (
            INITIAL          64K
            NEXT             1M
            MINEXTENTS       1
            MAXEXTENTS       UNLIMITED
            PCTINCREASE      0
            BUFFER_POOL      DEFAULT
           )
NOPARALLEL;


CREATE BITMAP INDEX EDW_OWNER.F_MONTHLY_REVENUE_SNAPSHOT_UI5 ON EDW_OWNER.F_MONTHLY_REVENUE_SNAPSHOT
(REGION_KEY)
NOLOGGING
TABLESPACE I_BI
PCTFREE    10
INITRANS   2
MAXTRANS   255
STORAGE    (
            INITIAL          64K
            NEXT             1M
            MINEXTENTS       1
            MAXEXTENTS       UNLIMITED
            PCTINCREASE      0
            BUFFER_POOL      DEFAULT
           )
NOPARALLEL;


CREATE UNIQUE INDEX EDW_OWNER.XPKF_MONTHLY_REVENUE_SNAPSHOT ON EDW_OWNER.F_MONTHLY_REVENUE_SNAPSHOT
(MONTHLY_REVENUE_SNAPSHOT_KEY)
NOLOGGING
TABLESPACE I_BI
PCTFREE    10
INITRANS   2
MAXTRANS   255
STORAGE    (
            INITIAL          64K
            NEXT             1M
            MINEXTENTS       1
            MAXEXTENTS       UNLIMITED
            PCTINCREASE      0
            BUFFER_POOL      DEFAULT
           )
NOPARALLEL;


ALTER TABLE EDW_OWNER.F_MONTHLY_REVENUE_SNAPSHOT ADD (
  CONSTRAINT XPKF_MONTHLY_REVENUE_SNAPSHOT
  PRIMARY KEY
  (MONTHLY_REVENUE_SNAPSHOT_KEY)
  USING INDEX EDW_OWNER.XPKF_MONTHLY_REVENUE_SNAPSHOT);

ALTER TABLE EDW_OWNER.F_MONTHLY_REVENUE_SNAPSHOT ADD (
  CONSTRAINT R_100 
  FOREIGN KEY (REGION_KEY) 
  REFERENCES EDW_OWNER.D_REGION (REGION_KEY),
  CONSTRAINT R_115 
  FOREIGN KEY (POSTING_DATE_KEY) 
  REFERENCES EDW_OWNER.D_DATE (DATE_KEY),
  CONSTRAINT R_92 
  FOREIGN KEY (ACCOUNT_KEY) 
  REFERENCES EDW_OWNER.D_ACCOUNT (ACCOUNT_KEY),
  CONSTRAINT R_95 
  FOREIGN KEY (REVENUE_DATE_KEY) 
  REFERENCES EDW_OWNER.D_DATE (DATE_KEY),
  CONSTRAINT R_99 
  FOREIGN KEY (PROGRAM_KEY) 
  REFERENCES EDW_OWNER.D_PROGRAM (PROGRAM_KEY));

GRANT SELECT ON EDW_OWNER.F_MONTHLY_REVENUE_SNAPSHOT TO BORPTRNR;

GRANT DELETE, INSERT, SELECT, UPDATE ON EDW_OWNER.F_DAILY_ACCOUNT_SNAPSHOT TO DWLOADER;

GRANT SELECT ON EDW_OWNER.F_MONTHLY_REVENUE_SNAPSHOT TO EDW_OWNER_SELECT ;

Spool off ; 