COUNT(*)|DATE_KEY|MONTH_YEAR_ABBR
230441|10258|2008-01
350767|10287|2008-02
353941|10318|2008-03
373859|10348|2008-04
357030|10379|2008-05
364785|10409|2008-06
380324|10440|2008-07
357916|10471|2008-08
364364|10501|2008-09
355075|10532|2008-10
352449|10562|2008-11
306599|10593|2008-12
341299|10624|2009-01
342342|10652|2009-02
345329|10683|2009-03
355894|10713|2009-04
351185|10744|2009-05
358949|10774|2009-06
359430|10805|2009-07
357731|10836|2009-08
375735|10866|2009-09
356031|10897|2009-10
342428|10927|2009-11
348321|10958|2009-12
332714|10989|2010-01
349333|11017|2010-02
347488|11048|2010-03
350761|11078|2010-04
356783|11109|2010-05
381671|11139|2010-06
364070|11170|2010-07
364670|11201|2010-08
374184|11231|2010-09
374909|11262|2010-10
406236|11292|2010-11
417555|11323|2010-12
407787|11354|2011-01
433440|11382|2011-02
440188|11413|2011-03
419250|11443|2011-04
433032|11474|2011-05
603847|11504|2011-06
496160|11535|2011-07
430290|11566|2011-08
424144|11596|2011-09
458897|11627|2011-10
451677|11657|2011-11
417302|11688|2011-12
427396|11719|2012-01
433554|11748|2012-02
425524|11779|2012-03
436709|11809|2012-04
478157|11840|2012-05
442648|11870|2012-06
444530|11901|2012-07
454329|11932|2012-08
440343|11962|2012-09
692267|11993|2012-10
677421|12023|2012-11
460862|12054|2012-12
467059|12085|2013-01
460008|12113|2013-02
453978|12144|2013-03
472377|12174|2013-04
480305|12205|2013-05
477365|12235|2013-06
477843|12266|2013-07
480829|12297|2013-08
536056|12327|2013-09
528274|12358|2013-10
492769|12388|2013-11
388870|12419|2013-12
