/* Formatted on 11/1/2010 11:06:24 AM (QP5 v5.163.1008.3004) */
/*

these are the preliminary steps necessary to process DW_PURCH_DEVICE properly 
for the purpose of populating the D_PURCHASE_DEVICE with historic data 
*/

---------------------------------------------------------------------------------
---------------------------------------------------------------------------------
-- 1) Make a copied of DW_PURCH_DEVICE in STAGE_OWNER
---------------------------------------------------------------------------------
---------------------------------------------------------------------------------

-- ** VENU to complete **

---------------------------------------------------------------------------------
---------------------------------------------------------------------------------
-- 2) Update records to ensure consistency in the use of pd_row_id and curr_pd_row_id
--
-- The following update statement should correct the equivelent of the DW_PURCH_DEVICE table
-- so that PD_ROW_IDs are correct
---------------------------------------------------------------------------------
---------------------------------------------------------------------------------

TRUNCATE TABLE DW_PURCH_DEVICE ; 

INSERT /*+append */ 
 INTO DW_PURCH_DEVICE 
 ( DW_PURCH_DEVICE_KEY, PD_ROW_ID, ACCT_ROW_ID, 
   DEPT_ROW_ID, PD_EFF_DT, PD_PROFILE_NM, 
   PD_SITE_ROW_ID, EMBOSS_PD_NBR, EMBOSS_SOURCE_1, 
   EMBOSSED_VALUE_1, EMBOSS_SOURCE_2, EMBOSSED_VALUE_2, 
   EMBOSS_SOURCE_3, EMBOSSED_VALUE_3, WEX_PD_NBR, 
   PD_SUFFIX_NBR, SPNR_PD_NBR, MRCH_SITE_ID, 
   PD_SETUP_DT, LAST_ISSUED_DT, PD_RENEWAL_DT, 
   PD_EXPN_DT, PD_STS, AUTH_CNTRL_ROW_ID, 
   POS_PROMPTING, START_ODOM_MILEAGE, PD_STS_RSN, 
   TRACK_II_RESTR, DW_CREATE_DT, DW_LAST_UPDT_DT, 
   DW_LAST_UPDT_SESSION_NM, DW_SOURCE_SYS, SRC_SYS_LAST_UPDT_DT, 
   DW_PROCESSED_CD, PD_EXCEPTION_ROW_ID, ENCODED_PD_NBR, 
   POS_PROMPT_CD, ICR_NOT_ALLOWED, CURR_PD_ROW_ID, 
   ORIG_PD_ROW_ID, CROSS_ACCEPT_ACCT_NBR_FLG, PD_PROD_ROW_ID, 
   ASSET_ROW_ID, DRIVER_ROW_ID, INT_PRMPT_CD, 
   INT_PRMPTING, PD_DEVICE_TYPE, INTERNAL_SUSPEND_FLG, 
   UDF1, UDF2, UDF3, 
   UDF4, UDF5, UDF6, 
   UDF7, UDF8, UDF9, 
   UDF10, UDF11, UDF12, 
   UDF13, UDF14, UDF15, 
   UDF16, UDF17, UDF18, 
   UDF19, UDF20, REQUESTED_BY, 
   BANK_ID_NBR, DW_CURRENT_FLG, DW_EFF_DT, 
   DW_EXPN_DT, EMBOSS_PD_NBR_GEN_ALGORITHM, PD_ACCEPT_LVL, 
   PD_ACCEPT_LVL_DESC, PD_ACTIV_DT, PD_CNTRL_NBR, 
   PD_PROD_NM, PD_PROD_SPNR_DISPLAY_NM, PD_SUSPENSE_DT, 
   PD_TERMED_DT, STATION_CARD_FLG, STATUS_DT, 
   USAGE_TYPE ) 
 ( SELECT  /*+ parallel (SRC_SBL_PURCH_DEVICE_FULL , 2) */ 
  DW_PURCH_DEVICE_KEY, PD_ROW_ID, ACCT_ROW_ID, 
   DEPT_ROW_ID, PD_EFF_DT, PD_PROFILE_NM, 
   PD_SITE_ROW_ID, EMBOSS_PD_NBR, EMBOSS_SOURCE_1, 
   EMBOSSED_VALUE_1, EMBOSS_SOURCE_2, EMBOSSED_VALUE_2, 
   EMBOSS_SOURCE_3, EMBOSSED_VALUE_3, WEX_PD_NBR, 
   PD_SUFFIX_NBR, SPNR_PD_NBR, MRCH_SITE_ID, 
   PD_SETUP_DT, LAST_ISSUED_DT, PD_RENEWAL_DT, 
   PD_EXPN_DT, PD_STS, AUTH_CNTRL_ROW_ID, 
   POS_PROMPTING, START_ODOM_MILEAGE, PD_STS_RSN, 
   TRACK_II_RESTR, DW_CREATE_DT, DW_LAST_UPDT_DT, 
   DW_LAST_UPDT_SESSION_NM, DW_SOURCE_SYS, SRC_SYS_LAST_UPDT_DT, 
   DW_PROCESSED_CD, PD_EXCEPTION_ROW_ID, ENCODED_PD_NBR, 
   POS_PROMPT_CD, ICR_NOT_ALLOWED, CURR_PD_ROW_ID, 
   ORIG_PD_ROW_ID, CROSS_ACCEPT_ACCT_NBR_FLG, PD_PROD_ROW_ID, 
   ASSET_ROW_ID, DRIVER_ROW_ID, INT_PRMPT_CD, 
   INT_PRMPTING, PD_DEVICE_TYPE, INTERNAL_SUSPEND_FLG, 
   UDF1, UDF2, UDF3, 
   UDF4, UDF5, UDF6, 
   UDF7, UDF8, UDF9, 
   UDF10, UDF11, UDF12, 
   UDF13, UDF14, UDF15, 
   UDF16, UDF17, UDF18, 
   UDF19, UDF20, REQUESTED_BY, 
   BANK_ID_NBR, DW_CURRENT_FLG, DW_EFF_DT, 
   DW_EXPN_DT, EMBOSS_PD_NBR_GEN_ALGORITHM, PD_ACCEPT_LVL, 
   PD_ACCEPT_LVL_DESC, PD_ACTIV_DT, PD_CNTRL_NBR, 
   PD_PROD_NM, PD_PROD_SPNR_DISPLAY_NM, PD_SUSPENSE_DT, 
   PD_TERMED_DT, STATION_CARD_FLG, STATUS_DT, 
   USAGE_TYPE
FROM SRC_SBL_PURCH_DEVICE_FULL ) ; 


COMMIT ; 


UPDATE DW_PURCH_DEVICE SPD
   SET SPD.DW_EFF_DT = SPD.DW_EFF_DT + 1 / 1440,
       SPD.DW_LAST_UPDT_SESSION_NM = 'PREPARE DW_PURCH_DEVICE STEP2',
       SPD.PD_ROW_ID =
          (SELECT b.pd_row_id1
             FROM (SELECT DISTINCT
                          PD1.DW_PURCH_DEVICE_KEY AS DW_PURCH_DEVICE_KEY,
                          PD1.pd_row_id,
                          PD1.CURR_PD_ROW_ID,
                          a.pd_row_id AS pd_row_id1
                     FROM    DW_PURCH_DEVICE PD1
                          JOIN
                             ( -- find all records where pd_row_id <> CURR_PD_ROW_ID
                              SELECT  PD.DW_PURCH_DEVICE_KEY
                                         AS DW_PURCH_DEVICE_KEY,
                                      PD.pd_row_id AS pd_row_id,
                                      PD.CURR_PD_ROW_ID AS CURR_PD_ROW_ID
                                 FROM DW_PURCH_DEVICE PD
                                WHERE PD.pd_row_id <> PD.CURR_PD_ROW_ID) a
                          ON PD1.pd_row_id = a.CURR_PD_ROW_ID) b
            WHERE b.DW_PURCH_DEVICE_KEY = SPD.DW_PURCH_DEVICE_KEY)
 WHERE EXISTS
          (SELECT b.pd_row_id1
             FROM (SELECT DISTINCT
                          PD1.DW_PURCH_DEVICE_KEY AS DW_PURCH_DEVICE_KEY,
                          PD1.pd_row_id,
                          PD1.CURR_PD_ROW_ID,
                          a.pd_row_id AS pd_row_id1
                     FROM    DW_PURCH_DEVICE PD1
                          JOIN
                             ( -- find all records where pd_row_id <> CURR_PD_ROW_ID
                              SELECT  PD.DW_PURCH_DEVICE_KEY
                                         AS DW_PURCH_DEVICE_KEY,
                                      PD.pd_row_id AS pd_row_id,
                                      PD.CURR_PD_ROW_ID AS CURR_PD_ROW_ID
                                 FROM DW_PURCH_DEVICE PD
                                WHERE PD.pd_row_id <> PD.CURR_PD_ROW_ID) a
                          ON PD1.pd_row_id = a.CURR_PD_ROW_ID) b
            WHERE b.DW_PURCH_DEVICE_KEY = SPD.DW_PURCH_DEVICE_KEY);

-- 26956
-- Commit at 1:58  PM 8/16/10

commit ; 

---------------------------------------------------------------------------------
---------------------------------------------------------------------------------
-- 3) Update records to ensure all records with a status of 'Terminated' are marked as current
-- DW_CURRENT_FLG = 'Y' if there reason for termination is
--
---------------------------------------------------------------------------------
---------------------------------------------------------------------------------

UPDATE DW_PURCH_DEVICE PD1
   SET pd1.DW_CURRENT_FLG = 'Y',
       PD1.DW_LAST_UPDT_SESSION_NM = 'PREPARE DW_PURCH_DEVICE STEP3'
 WHERE EXISTS
          (SELECT PD.DW_PURCH_DEVICE_KEY
             FROM DW_PURCH_DEVICE PD
            WHERE     pd.DW_CURRENT_FLG = 'N'
                  AND PD.PD_STS = 'Terminated'
                  AND PD.PD_STS_RSN IN ('Lost', 'Stolen')
                  AND PD.DW_PURCH_DEVICE_KEY = PD1.DW_PURCH_DEVICE_KEY);

-- 600,328
-- 90,662  committed 2:07 08/16

commit ; 

---------------------------------------------------------------------------------
---------------------------------------------------------------------------------
-- 4) Delete records for PDs terminated prior to Jan 1 2006
--
---------------------------------------------------------------------------------
---------------------------------------------------------------------------------


DELETE FROM DW_PURCH_DEVICE PD1
      WHERE PD1.CURR_PD_ROW_ID IN
               (SELECT PD.CURR_PD_ROW_ID
                  FROM DW_PURCH_DEVICE PD
                 WHERE     pd.DW_CURRENT_FLG = 'Y'
                       AND PD.PD_STS = 'Terminated'
                       AND PD.DW_CREATE_DT < '01-Jan-2006');

-- 724,748
-- 30,203   committed  2:19 8/16

commit ; 
---------------------------------------------------------------------------------
---------------------------------------------------------------------------------
-- 5) GENERATE the missing 'Terminate' records
--
-- As a result of a bug in the current DW_PURCH_DEVICE daily processing there are
-- a number of 'Terminate' records missing from the table.
-- There should be 1 terminate record for each card whose most recent status is 'Active'
-- but is not the current record.  This happens when a new card record is created
-- to replace and existing card and the terminate record from the old card is not processed correctly.
---------------------------------------------------------------------------------
---------------------------------------------------------------------------------

INSERT                                                           /*+ APPEND */
      INTO                DW_PURCH_DEVICE PDI (
                             PDI.DW_PURCH_DEVICE_KEY,
                             PDI.ACCT_ROW_ID,
                             PDI.PD_ROW_ID,
                             PDI.BANK_ID_NBR,
                             PDI.PD_EFF_DT,
                             PDI.PD_SITE_ROW_ID,
                             PDI.DEPT_ROW_ID,
                             PDI.PD_PROFILE_NM,
                             PDI.WEX_PD_NBR,
                             PDI.EMBOSS_PD_NBR,
                             PDI.EMBOSS_SOURCE_1,
                             PDI.EMBOSSED_VALUE_1,
                             PDI.EMBOSS_SOURCE_2,
                             PDI.EMBOSSED_VALUE_2,
                             PDI.EMBOSSED_VALUE_3,
                             PDI.EMBOSS_SOURCE_3,
                             PDI.PD_SUFFIX_NBR,
                             PDI.SPNR_PD_NBR,
                             PDI.MRCH_SITE_ID,
                             PDI.PD_SETUP_DT,
                             PDI.LAST_ISSUED_DT,
                             PDI.PD_RENEWAL_DT,
                             PDI.PD_EXPN_DT,
                             PDI.PD_STS,
                             PDI.PD_PROD_NM,
                             PDI.AUTH_CNTRL_ROW_ID,
                             PDI.POS_PROMPTING,
                             PDI.STATION_CARD_FLG,
                             PDI.PD_STS_RSN,
                             PDI.TRACK_II_RESTR,
                             PDI.USAGE_TYPE,
                             PDI.PD_DEVICE_TYPE,
                             PDI.PD_EXCEPTION_ROW_ID,
                             PDI.ENCODED_PD_NBR,
                             PDI.DW_EFF_DT,
                             PDI.DW_EXPN_DT,
                             PDI.DW_CREATE_DT,
                             PDI.DW_LAST_UPDT_DT,
                             PDI.DW_LAST_UPDT_SESSION_NM,
                             PDI.DW_SOURCE_SYS,
                             PDI.DW_CURRENT_FLG,
                             PDI.POS_PROMPT_CD,
                             PDI.PD_TERMED_DT,
                             PDI.ICR_NOT_ALLOWED,
                             PDI.PD_ACCEPT_LVL,
                             PDI.CURR_PD_ROW_ID,
                             PDI.ORIG_PD_ROW_ID,
                             PDI.PD_CNTRL_NBR,
                             PDI.CROSS_ACCEPT_ACCT_NBR_FLG,
                             PDI.PD_ACCEPT_LVL_DESC,
                             PDI.PD_PROD_ROW_ID,
                             PDI.ASSET_ROW_ID,
                             PDI.DRIVER_ROW_ID,
                             PDI.INT_PRMPT_CD,
                             PDI.PD_ACTIV_DT,
                             PDI.PD_SUSPENSE_DT,
                             PDI.STATUS_DT,
                             PDI.INT_PRMPTING,
                             PDI.PD_PROD_SPNR_DISPLAY_NM,
                             PDI.EMBOSS_PD_NBR_GEN_ALGORITHM,
                             PDI.INTERNAL_SUSPEND_FLG,
                             PDI.UDF1,
                             PDI.UDF2,
                             PDI.UDF3,
                             PDI.UDF4,
                             PDI.UDF5,
                             PDI.UDF6,
                             PDI.UDF7,
                             PDI.UDF8,
                             PDI.UDF9,
                             PDI.UDF10,
                             PDI.UDF11,
                             PDI.UDF12,
                             PDI.UDF13,
                             PDI.UDF14,
                             PDI.UDF15,
                             PDI.UDF16,
                             PDI.UDF17,
                             PDI.UDF18,
                             PDI.UDF19,
                             PDI.UDF20,
                             PDI.REQUESTED_BY)
   -- find non-active PDs that where never terminated
   SELECT DW_PURCH_DEVICE_SEQ.NEXTVAL,
          PD2.ACCT_ROW_ID,
          PD2.PD_ROW_ID,
          PD2.BANK_ID_NBR,
          PD2.PD_EFF_DT,
          PD2.PD_SITE_ROW_ID,
          PD2.DEPT_ROW_ID,
          PD2.PD_PROFILE_NM,
          PD2.WEX_PD_NBR,
          PD2.EMBOSS_PD_NBR,
          PD2.EMBOSS_SOURCE_1,
          PD2.EMBOSSED_VALUE_1,
          PD2.EMBOSS_SOURCE_2,
          PD2.EMBOSSED_VALUE_2,
          PD2.EMBOSSED_VALUE_3,
          PD2.EMBOSS_SOURCE_3,
          PD2.PD_SUFFIX_NBR,
          PD2.SPNR_PD_NBR,
          PD2.MRCH_SITE_ID,
          --PD2.PD_SETUP_DT,
          CASE
             WHEN (SELECT COUNT (*)
                     FROM DW_PURCH_DEVICE pd
                    WHERE TRUNC (pd.DW_CREATE_DT) > PD2.DW_CREATE_DT
                          AND PD2.PD_ROW_ID = PD.PD_ROW_ID) = 0
             THEN
                PD2.DW_CREATE_DT
             ELSE
                (  SELECT MIN (DW_CREATE_DT)
                     FROM DW_PURCH_DEVICE pd
                    WHERE TRUNC (pd.DW_CREATE_DT) > PD2.DW_CREATE_DT
                          AND pd.pd_row_id = PD2.pd_row_id
                 GROUP BY pd_row_id)
          END
             AS SETUP_DT,
          PD2.LAST_ISSUED_DT,
          PD2.PD_RENEWAL_DT,
          PD2.PD_EXPN_DT,
          --PD2.PD_STS,
          'Terminated' AS PD_STS,
          PD2.PD_PROD_NM,
          PD2.AUTH_CNTRL_ROW_ID,
          PD2.POS_PROMPTING,
          PD2.STATION_CARD_FLG,
          PD2.PD_STS_RSN,
          PD2.TRACK_II_RESTR,
          PD2.USAGE_TYPE,
          PD2.PD_DEVICE_TYPE,
          PD2.PD_EXCEPTION_ROW_ID,
          PD2.ENCODED_PD_NBR,
          --PD2.DW_EFF_DT,
          PD2.DW_EFF_DT + (61 / 86400),
          PD2.DW_EXPN_DT,
          --PD2.DW_CREATE_DT,
          CASE
             WHEN (SELECT COUNT (*)
                     FROM DW_PURCH_DEVICE pd
                    WHERE TRUNC (pd.DW_CREATE_DT) > PD2.DW_CREATE_DT
                          AND PD2.PD_ROW_ID = PD.PD_ROW_ID) = 0
             THEN
                PD2.DW_CREATE_DT
             ELSE
                (  SELECT MIN (DW_CREATE_DT)
                     FROM DW_PURCH_DEVICE pd
                    WHERE TRUNC (pd.DW_CREATE_DT) > PD2.DW_CREATE_DT
                          AND pd.pd_row_id = PD2.pd_row_id
                 GROUP BY pd_row_id)
          END
             AS CREATE_DATE,
          PD2.DW_LAST_UPDT_DT,
          --PD2.DW_LAST_UPDT_SESSION_NM,
          'PREPARE DW_PURCHASE_DEVICE STEP5',
          PD2.DW_SOURCE_SYS,
          --PD2.DW_CURRENT_FLG,
          'Y',
          PD2.POS_PROMPT_CD,
          PD2.PD_TERMED_DT,
          PD2.ICR_NOT_ALLOWED,
          PD2.PD_ACCEPT_LVL,
          PD2.CURR_PD_ROW_ID,
          PD2.ORIG_PD_ROW_ID,
          PD2.PD_CNTRL_NBR,
          PD2.CROSS_ACCEPT_ACCT_NBR_FLG,
          PD2.PD_ACCEPT_LVL_DESC,
          PD2.PD_PROD_ROW_ID,
          PD2.ASSET_ROW_ID,
          PD2.DRIVER_ROW_ID,
          PD2.INT_PRMPT_CD,
          PD2.PD_ACTIV_DT,
          PD2.PD_SUSPENSE_DT,
          PD2.STATUS_DT,
          PD2.INT_PRMPTING,
          PD2.PD_PROD_SPNR_DISPLAY_NM,
          PD2.EMBOSS_PD_NBR_GEN_ALGORITHM,
          PD2.INTERNAL_SUSPEND_FLG,
          PD2.UDF1,
          PD2.UDF2,
          PD2.UDF3,
          PD2.UDF4,
          PD2.UDF5,
          PD2.UDF6,
          PD2.UDF7,
          PD2.UDF8,
          PD2.UDF9,
          PD2.UDF10,
          PD2.UDF11,
          PD2.UDF12,
          PD2.UDF13,
          PD2.UDF14,
          PD2.UDF15,
          PD2.UDF16,
          PD2.UDF17,
          PD2.UDF18,
          PD2.UDF19,
          PD2.UDF20,
          PD2.REQUESTED_BY
     FROM    DW_PURCH_DEVICE pd2
          JOIN
             (SELECT pd1.pd_row_id,
                     pd1.curr_pd_row_id,
                     pd1.DW_CREATE_DT,
                     pd1.PD_STS
                FROM    DW_PURCH_DEVICE pd1
                     JOIN
                        (       -- assemble key to find latest record in a set
                         SELECT   pd_row_id,
                                  curr_pd_row_id,
                                  MAX (DW_CREATE_DT) DW_CREATE_DT
                             FROM DW_PURCH_DEVICE pd
                         --where pd_row_id = '1-5AZ40T'
                         GROUP BY pd_row_id, curr_pd_row_id
                         ORDER BY pd_row_id, curr_pd_row_id) a
                     -- join key records created above with purchase device records that match the key and whose current flag is 'N' and status is not terminated
                     ON     a.pd_row_id = pd1.pd_row_id
                        AND a.curr_pd_row_id = pd1.curr_pd_row_id
                        AND a.DW_CREATE_DT = pd1.DW_CREATE_DT
                        AND pd1.DW_CURRENT_FLG = 'N'
                        AND PD1.PD_STS <> 'Terminated'--and rownum < 11
             ) b
          ON     pd2.pd_row_id = b.pd_row_id
             AND pd2.curr_pd_row_id = b.curr_pd_row_id
             AND pd2.DW_CREATE_DT = b.DW_CREATE_DT;


-- 24823 rows created. commit at 8:19 7/20/2010
-- 24823 rows created. commit at 7:58 8/17/2010
---------------------------------------------------------------------------------
---------------------------------------------------------------------------------
-- 6) Delete records for PDs terminated prior to Jan 1 2006 (that were
--  terminated in the step above
---------------------------------------------------------------------------------
---------------------------------------------------------------------------------

commit ; 

DELETE FROM DW_PURCH_DEVICE PD1
      WHERE PD1.CURR_PD_ROW_ID IN
               (SELECT PD.CURR_PD_ROW_ID
                  FROM DW_PURCH_DEVICE PD
                 WHERE     pd.DW_CURRENT_FLG = 'Y'
                       AND PD.PD_STS = 'Terminated'
                       AND PD.DW_CREATE_DT < '01-Jan-2006') ; 

-- 0 rows deleted

-- 0 rows deleted commmit at 8:00 8/17/2010


commit; 

TRUNCATE TABLE SRC_SBL_PURCH_DEVICE_HIST ; 

 INSERT /*+ append */  INTO SRC_SBL_PURCH_DEVICE_HIST (
                                       DS_PURCH_DEVICE_KEY,
                                       PD_ROW_ID, -- (Note this need to have the  curr_pd_row_id from   DW_PURCH_DEVICE  only )   
                                       ACCT_ROW_ID,
                                       DEPT_ROW_ID,
                                       PD_EFF_DT,
                                       PD_PROFILE_NM,
                                       PD_SITE_ROW_ID,
                                       EMBOSS_PD_NBR,
                                       EMBOSS_SOURCE_1,
                                       EMBOSSED_VALUE_1,
                                       EMBOSS_SOURCE_2,
                                       EMBOSSED_VALUE_2,
                                       EMBOSS_SOURCE_3,
                                       EMBOSSED_VALUE_3,
                                       WEX_PD_NBR,
                                       PD_SUFFIX_NBR,
                                       SPNR_PD_NBR,
                                       MRCH_SITE_ID,
                                       PD_SETUP_DT,
                                       LAST_ISSUED_DT,
                                       PD_RENEWAL_DT,
                                       PD_EXPN_DT,
                                       PD_STS,
                                       AUTH_CNTRL_ROW_ID,
                                       POS_PROMPTING,
                                       START_ODOM_MILEAGE,
                                       PD_STS_RSN,
                                       TRACK_II_RESTR,
                                       DW_CREATE_DT,
                                       DW_LAST_UPDT_DT,
                                       DW_LAST_UPDT_SESSION_NM,
                                       DW_SOURCE_SYS,
                                       SRC_SYS_LAST_UPDT_DT,
                                       DW_PROCESSED_CD,
                                       PD_EXCEPTION_ROW_ID,
                                       ENCODED_PD_NBR,
                                       POS_PROMPT_CD,
                                       ICR_NOT_ALLOWED,
                                       ROLLUP_PD_ROW_ID, -- (Note this need to have the  pd_row_id from   DW_PURCH_DEVICE  only ) 
                                       ORIG_PD_ROW_ID,    -- ( Note this needs to have data from ORIG_PD_ROW_ID only 
                                       CROSS_ACCEPT_ACCT_NBR_FLG,
                                       PD_PROD_ROW_ID,
                                       ASSET_ROW_ID,
                                       DRIVER_ROW_ID,
                                       INT_PRMPT_CD,
                                       INT_PRMPTING,
                                       PD_DEVICE_TYPE,
                                       INTERNAL_SUSPEND_FLG,
                                       UDF1,
                                       UDF2,
                                       UDF3,
                                       UDF4,
                                       UDF5,
                                       UDF6,
                                       UDF7,
                                       UDF8,
                                       UDF9,
                                       UDF10,
                                       UDF11,
                                       UDF12,
                                       UDF13,
                                       UDF14,
                                       UDF15,
                                       UDF16,
                                       UDF17,
                                       UDF18,
                                       UDF19,
                                       UDF20,
                                       REQUESTED_BY)
(  select 
        DW_PURCH_DEVICE_KEY,
           CURR_PD_ROW_ID,
           ACCT_ROW_ID,
           DEPT_ROW_ID,
           PD_EFF_DT,
           PD_PROFILE_NM,
           PD_SITE_ROW_ID,
           EMBOSS_PD_NBR,
           EMBOSS_SOURCE_1,
           EMBOSSED_VALUE_1,
           EMBOSS_SOURCE_2,
           EMBOSSED_VALUE_2,
           EMBOSS_SOURCE_3,
           EMBOSSED_VALUE_3,
           WEX_PD_NBR,
           PD_SUFFIX_NBR,
           SPNR_PD_NBR,
           MRCH_SITE_ID,
           PD_SETUP_DT,
           LAST_ISSUED_DT,
           PD_RENEWAL_DT,
           PD_EXPN_DT,
           PD_STS,
           AUTH_CNTRL_ROW_ID,
           POS_PROMPTING,
           START_ODOM_MILEAGE,
           PD_STS_RSN,
           TRACK_II_RESTR,
           DW_CREATE_DT,
           DW_LAST_UPDT_DT, 
           DW_LAST_UPDT_SESSION_NM,
           DW_SOURCE_SYS,
           DW_LAST_UPDT_DT, 
           DW_PROCESSED_CD,
           PD_EXCEPTION_ROW_ID,
           ENCODED_PD_NBR,
           POS_PROMPT_CD,
           ICR_NOT_ALLOWED,
           PD_ROW_ID,
           ORIG_PD_ROW_ID,
           CROSS_ACCEPT_ACCT_NBR_FLG,
           PD_PROD_ROW_ID,
           ASSET_ROW_ID,
           DRIVER_ROW_ID,
           INT_PRMPT_CD,
           INT_PRMPTING,
           PD_DEVICE_TYPE,
           INTERNAL_SUSPEND_FLG,
           UDF1,
           UDF2,
           UDF3,
           UDF4,
           UDF5,
           UDF6,
           UDF7,
           UDF8,
           UDF9,
           UDF10,
           UDF11,
           UDF12,
           UDF13,
           UDF14,
           UDF15,
           UDF16,
           UDF17,
           UDF18,
           UDF19,
           UDF20,
           REQUESTED_BY
FROM DW_PURCH_DEVICE )  
; 

 commit ; 