SET SERVEROUTPUT ON
SET ECHO ON
SET TIMING ON


SPOOL  /i1/&&env/hub/logs/F_WAIVED_FEE_EVENT_STAGE.tbl.log  ;


DROP TABLE F_WAIVED_FEE_EVENT ;  
		
CREATE TABLE F_WAIVED_FEE_EVENT
( 	WAIVED_FEE_EVENT_KEY  INTEGER  NOT NULL ,
	ACCOUNT_KEY           INTEGER  NOT NULL ,
	END_DATE_KEY          INTEGER  NOT NULL ,
	BEGIN_DATE_KEY        INTEGER  NOT NULL ,
	PROGRAM_KEY           INTEGER  NOT NULL ,
	LINE_ITEM_TYPE_KEY    INTEGER  NOT NULL ,
	WAIVED_EVENT_COUNT1   INTEGER  NOT NULL ,
	ROW_LAST_MOD_PROC_SEQ_NBR  INTEGER  NOT NULL ,
	ROW_CREATE_DTTM       DATE  NOT NULL ,
	ROW_LAST_MOD_DTTM     DATE  NOT NULL ,
	ROW_LAST_MOD_PROC_NM  VARCHAR2(200)  NOT NULL 
)
TABLESPACE D_BI
;


GRANT DELETE, INSERT, SELECT, UPDATE ON F_WAIVED_FEE_EVENT TO DWLOADER , EDW_OWNER ;

GRANT SELECT ON F_WAIVED_FEE_EVENT  TO EDW_OWNER_SELECT ;

SPOOL OFF ; 	