SET SERVEROUTPUT ON
SET ECHO ON
SET TIMING ON

SPOOL /i1/&&env/hub/logs/SRC_TDM_FLT0OPT.tbl.log ; 

DROP TABLE  SRC_TDM_FLT0OPT ;

CREATE TABLE SRC_TDM_FLT0OPT
( COMPANY_ID                    NUMBER(6),
  CLIENT_MERCHANT               VARCHAR2(2 BYTE),
  CLIENT_STATE                  NUMBER(2),
  CLIENT_ZEROES                 NUMBER(2),
  ACCOUNT_NUMBER                NUMBER(6),
  CHECK_DIGIT                   NUMBER(1),
  WEX_ACCT_NBR                  VARCHAR2(19 BYTE),  
  CONTACT_TITLE                 VARCHAR2(20 BYTE),
  PHONE_NUMBER                  VARCHAR2(10 BYTE),
  FLEET_FAX_NUMBER              VARCHAR2(10 BYTE),
  REPORT_CODE                   VARCHAR2(6 BYTE),
  VIDEO_REQUEST                 VARCHAR2(1 BYTE),
  VIDEO_TELESELLER              VARCHAR2(3 BYTE),
  VIDEO_MAIL_DATE               VARCHAR2(6 BYTE),
  FA_REQUEST                    VARCHAR2(1 BYTE),
  FA_TELESELLER                 VARCHAR2(3 BYTE),
  FA_MAIL_DATE                  NUMBER(8),
  EDATA_SYSTEM_INDICATOR        VARCHAR2(1 BYTE),
  VIDEO_QTY                     NUMBER(3),
  CARD_HOLDER_TYPE              VARCHAR2(1 BYTE),
  CARD_SORT                     VARCHAR2(1 BYTE),
  GP_DISCOUNT_PCT               NUMBER(2,2),
  RENEWAL_PERIOD                VARCHAR2(3 BYTE),
  FED_TAX_FLAG                  VARCHAR2(1 BYTE),
  ACCT_TERMINATION_DATE         NUMBER(8),
  EVAR_REQUEST                  VARCHAR2(1 BYTE),
  EVAR_TELESELLER               VARCHAR2(3 BYTE),
  EVAR_FEE                      NUMBER(6,2),
  WAIVE_EVAR_FEE                VARCHAR2(1 BYTE),
  EVAR_MAIL_DATE                VARCHAR2(8 BYTE),
  EFPS_REQUEST                  VARCHAR2(1 BYTE),
  EFPS_TELESELLER               VARCHAR2(3 BYTE),
  EFPS_MAIL_DATE                VARCHAR2(8 BYTE),
  ALERT_REQUEST                 VARCHAR2(3 BYTE),
  ALERT_TELESELLER              VARCHAR2(3 BYTE),
  ALERT_MAIL_DATE               NUMBER(8),
  CALL_TYPE                     VARCHAR2(2 BYTE),
  VAR_HOLD_USER                 VARCHAR2(6 BYTE),
  SUMMARY_VAR_FEE               NUMBER(5,2),
  WAIVE_SUM_FEE                 VARCHAR2(1 BYTE),
  NUM_MULTIPLE_VARS             NUMBER(4),
  MULTIPLE_VAR_FEE              NUMBER(5,2),
  WAIVE_MULTIPLE_FEE            VARCHAR2(1 BYTE),
  SPECIAL_REPORT_FEE            NUMBER(6,2),
  WAIVE_SP_REPORT_FEE           VARCHAR2(1 BYTE),
  EMBOSS_CODE                   VARCHAR2(1 BYTE),
  EMBOSS_LINE                   VARCHAR2(22 BYTE),
  EMBOSS_FEE                    NUMBER(5,2),
  WAIVE_EMBOSS_FEE              VARCHAR2(1 BYTE),
  EMBOSS_TELESELLER             VARCHAR2(3 BYTE),
  EMBOSS_SOLD_DATE              VARCHAR2(8 BYTE),
  CUST_PROFILE_NUM              VARCHAR2(10 BYTE),
  RENEW_CARD_FLAG               VARCHAR2(1 BYTE),
  CARD_EXP_FLAG                 VARCHAR2(1 BYTE),
  FLEET_CUSTOMER_INDICATOR      VARCHAR2(1 BYTE),
  BILL_REPL_CARDS               VARCHAR2(1 BYTE),
  REPLACEMENT_CARD_FEE          VARCHAR2(5 BYTE),
  NUM_EXTRA_CARDS_PER_VEH       NUMBER(1),
  EXTRA_CARD_FEE                NUMBER(5,2),
  PRIMARY_NATIONAL_FLEET        VARCHAR2(1 BYTE),
  NATIONAL_FLEET_ID             VARCHAR2(8 BYTE),
  COMPANY_PIN                   VARCHAR2(1 BYTE),
  NUM_NON_WEX_SITES             VARCHAR2(4 BYTE),
  NON_WEX_SITE_FEE              NUMBER(5,2),
  PRIVATE_TRAN_FEE              NUMBER(5,2),
  TAPE_TRANS_FEE                NUMBER(6,2),
  WAIVE_TAPE_FEE                VARCHAR2(1 BYTE),
  TAX_EXEMPT                    VARCHAR2(1 BYTE),
  TAX_EXEMPT_REPORTING          VARCHAR2(1 BYTE),
  TAX_EXEMPT_EFFECT_DATE        NUMBER(8),
  VIP_ACCOUNT                   VARCHAR2(1 BYTE),
  WHITE_CARD_ACCOUNT            VARCHAR2(1 BYTE),
  CARD_DELIVERY_FEE             VARCHAR2(6 BYTE),
  CARD_WAIVE_FEE                VARCHAR2(1 BYTE),
  CARD_WAIVE_THRU_DATE          NUMBER(8),
  CARD_HLDR_FLAG                VARCHAR2(1 BYTE),
  CARD_HOLDER_FEE               NUMBER(5,2),
  CARD_HOLDER_QTY               VARCHAR2(3 BYTE),
  CARD_HOLDER_DATE_SENT         VARCHAR2(8 BYTE),
  SIMPLEX_VAR                   VARCHAR2(1 BYTE),
  WAIVE_CARD_CHARGE             VARCHAR2(1 BYTE),
  WAIVE_CARD_CHRG_END_DATE      VARCHAR2(8 BYTE),
  SPECIAL_WEX_CARD_FEE          NUMBER(5,2),
  SPECIAL_FEE_END_DATE          NUMBER(8),
  MAIL_BILL_SEPARATELY          VARCHAR2(1 BYTE),
  LAST_CARD_BILL_DELIVERY       VARCHAR2(6 BYTE),
  CHECK_MAILED_HERE             VARCHAR2(1 BYTE),
  CHECK_MAILED_HERE_DATE        NUMBER(8),
  LOCK_BOX_LETTER               VARCHAR2(1 BYTE),
  LOCK_BOX_DATE                 NUMBER(8),
  ADDR_CHANGE_DATE              VARCHAR2(8 BYTE),
  ADDR_CHANGE_USER              VARCHAR2(6 BYTE),
  NUMBER_OVERNIGHT_REQ          NUMBER(3),
  LAST_OVERNIGHT_REQ            VARCHAR2(6 BYTE),
  EFPS_WAIVE_FAX_FEE_FLAG       VARCHAR2(1 BYTE),
  EFPS_WAIVE_FAX_FEE_THRU_DATE  NUMBER(8),
  ALLOW_CYCLE_CHNG_FLAG         VARCHAR2(1 BYTE),
  CYCLE_WKLY_BILL_MERCH_FLT     VARCHAR2(1 BYTE),
  CYCLE_WKLY_WAIVE_DATE         NUMBER(8),
  WKLY_RPTING_REQUEST           VARCHAR2(1 BYTE),
  WKLY_RPTING_TELESELLER        VARCHAR2(3 BYTE),
  WKLY_RPTING_MAIL_DATE         NUMBER(8),
  WKLY_BILLING_REQUEST          VARCHAR2(1 BYTE),
  WKLY_BILLING_TELESELLER       VARCHAR2(3 BYTE),
  WKLY_BILLING_MAIL_DATE        VARCHAR2(8 BYTE),
  ODOM_FEE                      NUMBER(5,2),
  ODOM_WAIVE_FLAG               VARCHAR2(1 BYTE),
  ODOM_WAIVE_THRU_DATE          NUMBER(8),
  VOL_REBATE_ELIGIBLE_FLAG      VARCHAR2(1 BYTE),
  VOL_REBATE_OVERRIDE_FLAG      VARCHAR2(1 BYTE),
  MOBIL_TAX_CODE                NUMBER(3),
  GVAR_FLAG                     VARCHAR2(1 BYTE),
  STANDARD_TNC_FLAG             VARCHAR2(1 BYTE),
  TELEMATICS_FLAG               VARCHAR2(1 BYTE),
  VIN_REQUIRED_FLAG             VARCHAR2(1 BYTE),
  REWARDS_FLAG                  VARCHAR2(1 BYTE),
  RETENTION_FLAG                VARCHAR2(1 BYTE),
  RETENTION_MOD_DATE            NUMBER(8),
  RETENTION_MOD_USER            VARCHAR2(8 BYTE),
  DEALER_CODE                   VARCHAR2(15 BYTE),
  ACCT_HIER_TYPE                VARCHAR2(1 BYTE),
  OVERNIGHT_VENDOR              VARCHAR2(10 BYTE),
  OVERNIGHT_VENDOR_ACCT         VARCHAR2(15 BYTE),
  LANGUAGE_INDICATOR            VARCHAR2(2 BYTE),
  FLEET_BILLING_INDICATOR       VARCHAR2(1 BYTE),
  LU_DATE                       VARCHAR2(8 BYTE),
  LU_PROGRAM                    VARCHAR2(8 BYTE),
  LAST_UPDATE_USERID            VARCHAR2(8 BYTE),
  TIME_STAMP                    NUMBER(8)
)
ORGANIZATION EXTERNAL
  (  TYPE ORACLE_LOADER
     DEFAULT DIRECTORY EDM_DATA_DIR
     ACCESS PARAMETERS 
       ( RECORDS DELIMITED BY NEWLINE
    LOGFILE           edm_log_dir:'rrt0opt.log'
    BADFILE           edm_log_dir:'rrt0opt.bad'
    DISCARDFILE    edm_log_dir:'rrt0opt.dis'
    FIELDS   
    LRTRIM 
    MISSING FIELD VALUES ARE NULL
    REJECT ROWS WITH ALL NULL FIELDS
      (      COMPANY_ID                     (1-6)     INTEGER EXTERNAL  ,
             CLIENT_MERCHANT            (7-8)     CHAR,
             CLIENT_STATE                   (9-10)    INTEGER EXTERNAL  ,
             CLIENT_ZEROES                  (11-12)   INTEGER EXTERNAL  ,
             ACCOUNT_NUMBER             (13-18)   INTEGER EXTERNAL  ,
             CHECK_DIGIT                      (19)      INTEGER EXTERNAL  ,
             WEX_ACCT_NBR                  (7-19)    CHAR,  
             CONTACT_TITLE                 (20-39)   CHAR,   
             PHONE_NUMBER                  (40-49)   CHAR,
             FLEET_FAX_NUMBER           (50-59)   CHAR,    
             REPORT_CODE                    (60-65)   CHAR,    
             VIDEO_REQUEST                  (66-66)   CHAR, 
             VIDEO_TELESELLER               (67-69)   CHAR , 
             VIDEO_MAIL_DATE                (70-75)   CHAR  ,
             FA_REQUEST                       (76-76)   char,
             FA_TELESELLER                    (77-79)   char,
             FA_MAIL_DATE                     (80-85)    ,
             EDATA_SYSTEM_INDICATOR     (86-86)   char , 
             VIDEO_QTY                  (87-89)    ,    
             CARD_HOLDER_TYPE           (90-90)    ,
             CARD_SORT                  (91-91)   char,       
             GP_DISCOUNT_PCT            (92-93)  zoned (2,2)  ,  
             RENEWAL_PERIOD             (94-95)     ,  
             FED_TAX_FLAG               (96-96)  char , 
             ACCT_TERMINATION_DATE      (97-102)   ,
             EVAR_REQUEST               (103-103) char ,  
             EVAR_TELESELLER            (104-106) char ,  
             EVAR_FEE                   (107-112) zoned (6,2) ,  
             WAIVE_EVAR_FEE             (113-113) char ,
             EVAR_MAIL_DATE             (114-119)  ,
             EFPS_REQUEST               (120-120)  ,
             EFPS_TELESELLER            (121-123) char ,     
             EFPS_MAIL_DATE             (124-129) char ,     
             ALERT_REQUEST              (130-130) char ,         
             ALERT_TELESELLER           (131-133) char ,            
             ALERT_MAIL_DATE            (134-139)  ,
             CALL_TYPE                  (140-141) char , 
             VAR_HOLD_USER              (142-147) char ,     
             SUMMARY_VAR_FEE            (148-152) zoned(5,2) ,  
             WAIVE_SUM_FEE              (153-153) char , 
             NUM_MULTIPLE_VARS          (154-157)  ,
             MULTIPLE_VAR_FEE           (158-162) zoned(5,2),     
             WAIVE_MULTIPLE_FEE         (163-163) char , 
             SPECIAL_REPORT_FEE         (164-169) ZONED(6,2)   NULLIF  SPECIAL_REPORT_FEE = '00+000'  DEFAULTIF   SPECIAL_REPORT_FEE = '00    ' ,  
             WAIVE_SP_REPORT_FEE        (170-170)  char , 
             EMBOSS_CODE                (171-171)  char ,          
             EMBOSS_LINE                (172-193)  char ,              
             EMBOSS_FEE                 (194-198) zoned(5,2),   
             WAIVE_EMBOSS_FEE           (199-199) char , 
             EMBOSS_TELESELLER          (200-202) char , 
             EMBOSS_SOLD_DATE           (203-208) char  ,
             CUST_PROFILE_NUM           (209-218) char , 
             RENEW_CARD_FLAG            (219-219) char ,   
             CARD_EXP_FLAG              (220-220) char ,   
             FLEET_CUSTOMER_INDICATOR   (221-221) char ,       
             BILL_REPL_CARDS            (222-222) char ,           
             REPLACEMENT_CARD_FEE       (223-227) char    ,  
             NUM_EXTRA_CARDS_PER_VEH    (228-228)   ,  
             EXTRA_CARD_FEE             (229-233) zoned(5,2),    
             PRIMARY_NATIONAL_FLEET     (234-234) char ,        
             NATIONAL_FLEET_ID          (235-242) char , 
             COMPANY_PIN                (243-243) char ,     
             NUM_NON_WEX_SITES          (244-247) integer external,  
             NON_WEX_SITE_FEE           (248-252) zoned(5,2),    
             PRIVATE_TRAN_FEE           (253-257) zoned (5,2) NULLIF PRIVATE_TRAN_FEE = '000+0' , 
             TAPE_TRANS_FEE             (258-263) zoned(6,2),      
             WAIVE_TAPE_FEE             (264-264) char , 
             TAX_EXEMPT                 (265-265) char , 
             TAX_EXEMPT_REPORTING       (266-266) char ,    
             TAX_EXEMPT_EFFECT_DATE     (267-272)  ,
             VIP_ACCOUNT                (273-273) char , 
             WHITE_CARD_ACCOUNT         (274-274) char ,    
             CARD_DELIVERY_FEE          (275-280) ZONED(6,2) NULLIF CARD_DELIVERY_FEE = '000+00' DEFAULTIF CARD_DELIVERY_FEE = '001+00'  ,       
             CARD_WAIVE_FEE             (281-281) char ,   
             CARD_WAIVE_THRU_DATE       (282-287)  ,
             CARD_HLDR_FLAG             (288-288) char ,  
             CARD_HOLDER_FEE            (289-293) zoned(5,2),  
             CARD_HOLDER_QTY            (294-296)  , 
             CARD_HOLDER_DATE_SENT      (297-302)  , 
             SIMPLEX_VAR                (303-303) char , 
             WAIVE_CARD_CHARGE          (304-304) char , 
             WAIVE_CARD_CHRG_END_DATE   (305-310)  , 
             SPECIAL_WEX_CARD_FEE       (311-315) ZONED (5,2)  ,       
             SPECIAL_FEE_END_DATE       (316-321)  , 
             MAIL_BILL_SEPARATELY       (322-322) char , 
             LAST_CARD_BILL_DELIVERY    (323-328)  ,  
             CHECK_MAILED_HERE          (329-329) char , 
             CHECK_MAILED_HERE_DATE     (330-335)  ,
             LOCK_BOX_LETTER            (336-336) char , 
             LOCK_BOX_DATE              (337-342)  , 
             ADDR_CHANGE_DATE           (343-348)  , 
             ADDR_CHANGE_USER           (349-354) char , 
             NUMBER_OVERNIGHT_REQ       (355-357)   , 
             LAST_OVERNIGHT_REQ         (358-363) char  ,     
             EFPS_WAIVE_FAX_FEE_FLAG    (364-364) char , 
             EFPS_WAIVE_FAX_FEE_THRU_DATE  (365-370)  ,
             ALLOW_CYCLE_CHNG_FLAG         (371-371) char , 
             CYCLE_WKLY_BILL_MERCH_FLT     (372-372) char , 
             CYCLE_WKLY_WAIVE_DATE         (373-378)  , 
             WKLY_RPTING_REQUEST           (379-379)  ,
             WKLY_RPTING_TELESELLER        (380-382) char ,  
             WKLY_RPTING_MAIL_DATE         (383-388)  ,
             WKLY_BILLING_REQUEST          (389-389) char , 
             WKLY_BILLING_TELESELLER       (390-392) char ,  
             WKLY_BILLING_MAIL_DATE        (393-398)  , 
             ODOM_FEE                      (399-403) zoned(5,2),       
             ODOM_WAIVE_FLAG               (404-404) char , 
             ODOM_WAIVE_THRU_DATE          (405-412)  , 
             vol_REBATE_ELIGIBLE_FLAG      (413-413) char , 
             vol_REBATE_OVERRIDE_FLAG      (414-414) char , 
             MOBIL_TAX_CODE                (415-417)  , 
             GVAR_FLAG                     (418-418) CHAR, 
             STANDARD_TNC_FLAG             (419-419) CHAR ,
             TELEMATICS_FLAG               (421-421) CHAR , 
             VIN_REQUIRED_FLAG             (422-422) CHAR , 
             REWARDS_FLAG                  (423-423) CHAR , 
             RETENTION_FLAG                (424-424) char , 
             RETENTION_MOD_DATE            (425-430)  ,
             RETENTION_MOD_USER            (431-438) char , 
             DEALER_CODE                   (439-453) char , 
             ACCT_HIER_TYPE                (454-454) char , 
             OVERNIGHT_VENDOR              (455-464) char ,  
             OVERNIGHT_VENDOR_ACCT         (465-479) char ,  
             LANGUAGE_INDICATOR            (480-481) char ,   
             FLEET_BILLING_INDICATOR       (482-482) char ,    
             LU_DATE                       (483-488)  ,
             LU_PROGRAM                    (489-496) char , 
             LAST_UPDATE_USERID            (497-504) char ,
             TIME_STAMP                    (505-512)      
 )
                )
     LOCATION (EDM_DATA_DIR:'rrt0opt.dat')
  )
REJECT LIMIT 1
PARALLEL ( DEGREE 8 INSTANCES 1 )
NOMONITORING;


GRANT ALTER, SELECT ON SRC_TDM_FLT0OPT TO DWLOADER;

GRANT ALTER, SELECT ON SRC_TDM_FLT0OPT TO STAGE_OWNER_SELECT;

GRANT ALTER, SELECT ON SRC_TDM_FLT0OPT TO EDM_OWNER ;

Spool off ; 


