
SET SERVEROUTPUT ON
SET ECHO ON
SET TIMING ON
DEFINE &&env = &1

SPOOL /i1/&&env/hub/logs/SRC_SBL_S_SRC.tbl.log ; 

DROP TABLE SRC_SBL_S_SRC CASCADE CONSTRAINTS;

CREATE TABLE SRC_SBL_S_SRC
( ROW_ID              VARCHAR2(15 CHAR)         ,
  CREATED             DATE                      ,
  CREATED_BY          VARCHAR2(15 CHAR)         ,
  LAST_UPD            DATE                      ,
  LAST_UPD_BY         VARCHAR2(15 CHAR)         ,
  DCKING_NUM          NUMBER(22,7)           ,
  MODIFICATION_NUM    NUMBER(10)                ,
  CONFLICT_ID         VARCHAR2(15 CHAR)         ,
  CON_GENRTD_FLG      CHAR(1 CHAR)              ,
  NAME                VARCHAR2(100 CHAR)        ,
  SUB_TYPE            VARCHAR2(30 CHAR)         ,
  TEST_FLG            CHAR(1 CHAR)              ,
  REVN_GOAL_CURCY_CD  VARCHAR2(20 CHAR)          ,
  ACTL_RESP_RATE      NUMBER(22,7),
  ACTL_REVN_AMT       NUMBER(22,7),
  ACTL_ROI_AMT        NUMBER(22,7),
  ADJUSTED_COST       NUMBER(22,7),
  ADVERT_DESC_TEXT    VARCHAR2(255 CHAR),
  ASGN_DT             DATE,
  ASGN_USR_EXCLD_FLG  CHAR(1 CHAR),
  BDGT_AMT            NUMBER(22,7),
  CALC_SUB_COST       NUMBER(22,7),
  CAMP_CALL_LST_ID    VARCHAR2(15 CHAR),
  CAMP_TYPE_CD        VARCHAR2(30 CHAR),
  CONSUME_END_DT      DATE,
  CONSUME_START_DT    DATE,
  COST_CURCY_CD       VARCHAR2(20 CHAR),
  COST_EXCH_DT        DATE,
  COUPON_DROP_FLG     CHAR(1 CHAR),
  CUST_TRGT_METH_CD   VARCHAR2(30 CHAR),
  CUST_TRGT_TYPE_CD   VARCHAR2(30 CHAR),
  DEFAULT_OPTY_NAME   VARCHAR2(100 CHAR),
  DESC_TEXT           VARCHAR2(255 CHAR),
  DESIRED_NUM_CONS    NUMBER(10),
  DESIRED_PCT_OF_SEG  NUMBER(22,7),
  DISPLAY_FLG         CHAR(1 CHAR),
  DNIS_NUMBER         VARCHAR2(40 CHAR),
  ESCL_RULE_ID        VARCHAR2(15 CHAR),
  FEATURE_FLG         CHAR(1 CHAR),
  INTEGRATION_ID      VARCHAR2(30 CHAR),
  INT_OU_ID           VARCHAR2(15 CHAR),
  LOC                 VARCHAR2(100 CHAR),
  NUM_CONTACTS        NUMBER(10),
  OBJECTIVE           VARCHAR2(2000 CHAR),
  PACKAGE_DESC_TEXT   VARCHAR2(255 CHAR),
  PAR_SRC_ID          VARCHAR2(15 CHAR),
  PERIOD_ID           VARCHAR2(15 CHAR),
  PREDICT_CONV_RATE   NUMBER(22,7),
  PREDICT_COST_AMT    NUMBER(22,7),
  PREDICT_FIXED_COST  NUMBER(22,7),
  PREDICT_NUM_CONS    NUMBER(10),
  PREDICT_RESP_RATE   NUMBER(22,7),
  PREDICT_REVN_AMT    NUMBER(22,7),
  PREDICT_ROI_AMT     NUMBER(22,7),
  PREDICT_SALE_PRICE  NUMBER(22,7),
  PREDICT_UNIT_CONTR  NUMBER(22,7),
  PREDICT_VAR_I_COST  NUMBER(22,7),
  PREDICT_VAR_O_COST  NUMBER(22,7),
  PREF_LANG_ID        VARCHAR2(15 CHAR),
  PROG_END_DT         DATE,
  PROG_START_DT       DATE,
  PROMO_NUM           VARCHAR2(30 CHAR),
  PROMO_PRI_LST_ID    VARCHAR2(15 CHAR),
  PR_ACCNT_ID         VARCHAR2(15 CHAR),
  PR_CALL_LST_ID      VARCHAR2(15 CHAR),
  PR_CS_PATH_ID       VARCHAR2(15 CHAR),
  PR_DMND_CRT_PRG_ID  VARCHAR2(15 CHAR),
  PR_D_NOTE_ID        VARCHAR2(15 CHAR),
  PR_POSTN_ID         VARCHAR2(15 CHAR),
  PR_PROD_INT_ID      VARCHAR2(15 CHAR),
  PR_PROD_LN_ID       VARCHAR2(15 CHAR),
  PR_REP_DNRM_FLG     CHAR(1 CHAR),
  PR_REP_MANL_FLG     CHAR(1 CHAR),
  PR_REP_SYS_FLG      CHAR(1 CHAR),
  PR_SCRIPT_NOTE_ID   VARCHAR2(15 CHAR),
  PR_TERR_ID          VARCHAR2(15 CHAR),
  PURPOSE             VARCHAR2(2000 CHAR),
  REGION_CD           VARCHAR2(30 CHAR),
  RESPONSE_TYPE       VARCHAR2(30 CHAR),
  REVN_GOAL           NUMBER(22,7),
  REVN_GOAL_DT        DATE,
  SHIP_END_DT         DATE,
  SHIP_START_DT       DATE,
  SMPLNG_SORT_BY_FLD  VARCHAR2(75 CHAR),
  SMPLNG_TYPE_CD      VARCHAR2(30 CHAR),
  SPEC_ADVERT_FLG     CHAR(1 CHAR),
  SPEC_PACKAGE_FLG    CHAR(1 CHAR),
  SRC_CD              VARCHAR2(30 CHAR),
  STATUS_CD           VARCHAR2(30 CHAR),
  TARGET              VARCHAR2(2000 CHAR),
  TGT_CALLS_PER_DAY   NUMBER(10),
  TGT_TOTAL_CALLS     NUMBER(10),
  TMP_CALC_TEXT       VARCHAR2(250 CHAR),
  TMP_PRI_RDX_FLG     CHAR(1 CHAR),
  TMP_PRI_RDX_PCT     NUMBER(22,7),
  TOTAL_COST          NUMBER(22,7),
  ULT_PAR_SRC_ID      VARCHAR2(15 CHAR),
  X_ATTRIB_01         VARCHAR2(15 CHAR),
  X_ATTRIB_02         VARCHAR2(15 CHAR),
  X_ATTRIB_03         VARCHAR2(15 CHAR),
  X_ATTRIB_04         VARCHAR2(15 CHAR),
  X_ATTRIB_05         VARCHAR2(15 CHAR),
  X_ATTRIB_06         VARCHAR2(15 CHAR),
  X_ATTRIB_07         VARCHAR2(15 CHAR),
  X_ATTRIB_08         VARCHAR2(15 CHAR),
  X_ATTRIB_09         VARCHAR2(15 CHAR),
  X_ATTRIB_10         VARCHAR2(30 CHAR),
  X_ATTRIB_11         VARCHAR2(30 CHAR),
  X_ATTRIB_12         VARCHAR2(30 CHAR),
  X_ATTRIB_13         VARCHAR2(30 CHAR),
  X_ATTRIB_14         VARCHAR2(30 CHAR),
  X_ATTRIB_15         VARCHAR2(30 CHAR),
  X_ATTRIB_16         VARCHAR2(30 CHAR),
  X_ATTRIB_17         VARCHAR2(50 CHAR),
  X_ATTRIB_18         VARCHAR2(50 CHAR),
  X_ATTRIB_19         VARCHAR2(100 CHAR),
  X_ATTRIB_20         VARCHAR2(100 CHAR),
  X_ATTRIB_21         VARCHAR2(100 CHAR),
  X_ATTRIB_22         NUMBER(10),
  X_ATTRIB_23         NUMBER(10),
  X_ATTRIB_24         NUMBER(10),
  X_ATTRIB_25         NUMBER(10),
  X_ATTRIB_26         NUMBER(10),
  X_ATTRIB_27         NUMBER(10),
  X_ATTRIB_28         NUMBER(10),
  X_ATTRIB_29         NUMBER(10),
  X_ATTRIB_30         DATE,
  X_ATTRIB_31         DATE,
  X_ATTRIB_32         DATE,
  X_ATTRIB_33         DATE,
  X_ATTRIB_34         DATE,
  X_ATTRIB_35         DATE,
  X_ATTRIB_36         DATE,
  X_ATTRIB_37         DATE,
  X_ATTRIB_38         DATE,
  X_ATTRIB_39         DATE,
  X_ATTRIB_40         DATE,
  X_ATTRIB_41         CHAR(1 CHAR),
  X_ATTRIB_42         CHAR(1 CHAR),
  X_ATTRIB_43         CHAR(1 CHAR),
  X_ATTRIB_44         CHAR(1 CHAR),
  X_ATTRIB_45         CHAR(1 CHAR),
  X_ATTRIB_46         CHAR(1 CHAR),
  X_ATTRIB_47         CHAR(1 CHAR),
  X_ATTRIB_48         CHAR(1 CHAR),
  X_ATTRIB_49         CHAR(1 CHAR),
  X_ATTRIB_50         CHAR(1 CHAR),
  X_ATTRIB_51         CHAR(1 CHAR),
  X_BU_ID             VARCHAR2(15 CHAR)         ,
  ACTL_AMT_EXCH_DT    DATE,
  ACTL_CONV_RATE      NUMBER(22,7),
  ACTL_COST_AMT       NUMBER(22,7),
  ACTL_FIXED_COST     NUMBER(22,7),
  ACTL_NUM_CONTACTS   NUMBER(10),
  ACTL_QTY            NUMBER(22,7),
  ACTL_SALE_PRICE     NUMBER(22,7),
  ACTL_UNIT_CONTR     NUMBER(22,7),
  ACTL_VAR_I_COST     NUMBER(22,7),
  ACTL_VAR_O_COST     NUMBER(22,7),
  AMT_CURCY_CD        VARCHAR2(20 CHAR),
  ASGN_RULE_GRP_ID    VARCHAR2(15 CHAR),
  BUDGET_PERIOD_ID    VARCHAR2(15 CHAR),
  CHMPINTV_ID         VARCHAR2(15 CHAR),
  COLLAB_DESC_TEXT    VARCHAR2(250 CHAR),
  COMMENTS            VARCHAR2(250 CHAR),
  CRSE_ID             VARCHAR2(15 CHAR),
  CTLG_CAT_ID         VARCHAR2(15 CHAR),
  CUR_WF_PROCESS_ID   VARCHAR2(15 CHAR),
  CURRENT_TARGET_NUM  NUMBER(22,10)            ,
  DFLT_OWNER_BU_ID    VARCHAR2(15 CHAR),
  DFLT_OWNER_PSTN_ID  VARCHAR2(15 CHAR),
  DNIS_LEADER         VARCHAR2(50 CHAR),
  DNIS_PASSCODE       VARCHAR2(20 CHAR),
  DNIS_REPLAY_NUM     VARCHAR2(20 CHAR),
  DNIS_REPLAY_TS      DATE,
  DT_LAG              NUMBER(10),
  DT_LAG_UNITS_CD     VARCHAR2(30 CHAR),
  EAI_LST_FMT_ID      VARCHAR2(15 CHAR),
  EST_AMT_EXCH_DT     DATE,
  EXEC_APPR_STAT_CD   VARCHAR2(30 CHAR),
  EXECUTION_STAT_CD   VARCHAR2(30 CHAR),
  FCST_SALE_PRICE     NUMBER(22,7),
  FILTER_ID           VARCHAR2(15 CHAR),
  FIXED_COST_TYPE_CD  VARCHAR2(30 CHAR),
  INDIR_ACCNT_ID      VARCHAR2(15 CHAR),
  LAYOUT              VARCHAR2(2000 CHAR),
  MEDIA_TYPE_CD       VARCHAR2(30 CHAR),
  MKTG_APPR_STAT_CD   VARCHAR2(30 CHAR),
  ORG_PROD_ID         VARCHAR2(15 CHAR),
  OTH_COST_DESC       VARCHAR2(250 CHAR),
  OWNERSHIP_TYPE_CD   VARCHAR2(30 CHAR),
  PCT_CODED_FCST      NUMBER(22,7),
  PCT_CODED_RESP      NUMBER(22,7),
  PLAN_TYPE_CD        VARCHAR2(30 CHAR),
  PR_LST_FMT_ID       VARCHAR2(15 CHAR),
  PR_MDF_ID           VARCHAR2(15 CHAR),
  PR_PLAN_ITEM_ID     VARCHAR2(15 CHAR),
  PR_PRTNR_ID         VARCHAR2(15 CHAR),
  PR_TRGT_INDUST_ID   VARCHAR2(15 CHAR),
  PREF_UOM_CD         VARCHAR2(30 CHAR),
  PROD_ID             VARCHAR2(15 CHAR),
  PROMO_HIST_TBL_ID   VARCHAR2(15 CHAR),
  REPEAT_FREQ         NUMBER(22,10),
  REPEAT_TYPE_CD      VARCHAR2(30 CHAR),
  REPEAT_UNTIL        NUMBER(22,10),
  REV_NUM             NUMBER(22,7),
  REVN_GOAL_TGT_DT    DATE,
  SRC_CD_FMT_ID       VARCHAR2(15 CHAR),
  SRTFAM_ID           VARCHAR2(15 CHAR),
  SRTFAM_LVL_ID       VARCHAR2(15 CHAR),
  TARGET_ROI_AMT      NUMBER(22,7),
  TMPL_ID             VARCHAR2(15 CHAR),
  TOTAL_FUND_AMT      NUMBER(22,7),
  TRGT_MKT_SEG_ID     VARCHAR2(15 CHAR),
  TRGT_QTY            NUMBER(22,7),
  USER_KEY_TBL_ID     VARCHAR2(15 CHAR),
  ACTIVE_FLG          CHAR(1 CHAR)                   ,
  ALL_ACCNT_FLG       CHAR(1 CHAR)                   ,
  AUTO_EST_CNTS_FLG   CHAR(1 CHAR)                   ,
  BU_ID               VARCHAR2(15 CHAR)              ,
  CHECK_FST_STG_FLG   CHAR(1 CHAR)                   ,
  CLEAN_FILE_FLG      CHAR(1 CHAR)                   ,
  CONPRSP_DIRTY_FLG   CHAR(1 CHAR)                   ,
  COPY_TO_OCCUR_FLG   CHAR(1 CHAR)                   ,
  EXCL_STG_FLG        CHAR(1 CHAR)                         ,
  OWNER_EDIT_FLG      CHAR(1 CHAR)                         ,
  PARTNER_EDIT_FLG    CHAR(1 CHAR)                         ,
  PUBLISH_FLG         CHAR(1 CHAR)                         ,
  READ_ONLY_FLG       CHAR(1 CHAR)                         ,
  RTE_CONTACTS_FLG    CHAR(1 CHAR)                         ,
  RTE_PRSP_CONS_FLG   CHAR(1 CHAR)                         ,
  SEBL_DB_FLG         CHAR(1 CHAR)                         ,
  SRC_NUM             VARCHAR2(30 CHAR)                    ,
  STG_FUNNEL_FLG      CHAR(1 CHAR)                         ,
  TRACK_SEND_FLG      CHAR(1 CHAR)                         ,
  ACTL_REVN_CURCY_CD  VARCHAR2(20 CHAR),
  APPL_WAVELAG_FLG    CHAR(1 CHAR)                         ,
  BDGT_ALLOC_PCT      NUMBER(22,7),
  CAMP_ALLOC_LIMIT    NUMBER(10),
  CAMP_CAT_CD         VARCHAR2(30 CHAR),
  DB_LAST_UPD         DATE,
  DB_LAST_UPD_SRC     VARCHAR2(50 CHAR),
  ENFRC_APPR_FLG      CHAR(1 CHAR)                           ,
  FLOWCHART_CNCTR     VARCHAR2(1999 CHAR),
  FUNNEL_STAGE_ID     VARCHAR2(15 CHAR),
  GENRT_SRC_CD_FLG    CHAR(1 CHAR)                           ,
  LAUNCHED_TS         DATE,
  LOAD_BEHAVIOR_CD    VARCHAR2(30 CHAR),
  MEDIA_SUBTYPE_CD    VARCHAR2(30 CHAR),
  MKTG_BDGT_REQ_ID    VARCHAR2(15 CHAR),
  MKTG_PLAN_ID        VARCHAR2(15 CHAR),
  MKTG_TMPL_FLG       CHAR(1 CHAR)                           ,
  MKTG_TMPL_ID        VARCHAR2(15 CHAR),
  MUTL_EXCLUSIVE_FLG  CHAR(1 CHAR)                           ,
  NONEXEC_CAMP_FLG    CHAR(1 CHAR)                           ,
  NXTSCHD_LAUNCH_TS   DATE,
  PCT_ALLOC_FLG       CHAR(1 CHAR)                           ,
  PR_MKTG_OFFR_ID     VARCHAR2(15 CHAR),
  PRE_LOAD_TSK_WF_ID  VARCHAR2(15 CHAR),
  PRIORITY_CD         VARCHAR2(30 CHAR),
  PROMO_NAME          VARCHAR2(100 CHAR),
  PST_LNCH_TSK_WF_ID  VARCHAR2(15 CHAR),
  PST_LOAD_TSK_WF_ID  VARCHAR2(15 CHAR),
  RECURRING_FLG       CHAR(1 CHAR)                       ,
  REGION_ID           VARCHAR2(15 CHAR),
  REQUESTED_BDGT_AMT  NUMBER(22,7),
  RPT_ACROSSLOAD_FLG  CHAR(1 CHAR)                       ,
  RPT_WITHINLOAD_FLG  CHAR(1 CHAR)                       ,
  SPONSOR_EMP_ID      VARCHAR2(15 CHAR),
  SRC_CD_MAX_NUM      VARCHAR2(10 CHAR),
  STANDALONE_FLG      CHAR(1 CHAR)                       ,
  STAT_CD             VARCHAR2(30 CHAR),
  SUBMITTED_BY        VARCHAR2(15 CHAR),
  SUBMITTED_DT        DATE,
  SUPPRESSN_LIST_CD   VARCHAR2(30 CHAR),
  TRIGGER_FLG         CHAR(1 CHAR)                       ,
  TRNG_STATUS_CD      VARCHAR2(30 CHAR),
  USE_EXT_FILE_FLG    CHAR(1 CHAR)                       
)
ORGANIZATION EXTERNAL
  (  TYPE ORACLE_LOADER
     DEFAULT DIRECTORY EDM_DATA_DIR
     ACCESS PARAMETERS 
       ( RECORDS DELIMITED BY NEWLINE
    LOGFILE         EDM_LOG_DIR:'src_sbl_s_src.log'
    BADFILE         EDM_LOG_DIR:'src_sbl_s_src.bad'
    DISCARDFILE     EDM_LOG_DIR:'src_sbl_s_src.dis'
    FIELDS  TERMINATED BY '~|~'
    MISSING FIELD VALUES ARE NULL
    REJECT ROWS WITH ALL NULL FIELDS
 (ROW_ID              ,
  CREATED             CHAR  date_format DATE mask "MM/DD/YYYY hh24:mi:ss" NULLIF  CREATED = BLANKS ,
  CREATED_BY          ,
  LAST_UPD            CHAR  date_format DATE mask "MM/DD/YYYY hh24:mi:ss" NULLIF  LAST_UPD = BLANKS ,
  LAST_UPD_BY         ,
  DCKING_NUM          ,
  MODIFICATION_NUM    ,
  CONFLICT_ID         ,
  CON_GENRTD_FLG      ,
  NAME                ,
  SUB_TYPE            ,
  TEST_FLG            ,
  REVN_GOAL_CURCY_CD  ,
  ACTL_RESP_RATE      ,
  ACTL_REVN_AMT       ,
  ACTL_ROI_AMT        ,
  ADJUSTED_COST       ,
  ADVERT_DESC_TEXT    ,
  ASGN_DT             CHAR  date_format DATE mask "MM/DD/YYYY hh24:mi:ss" NULLIF  ASGN_DT = BLANKS ,
  ASGN_USR_EXCLD_FLG  ,
  BDGT_AMT            ,
  CALC_SUB_COST       ,
  CAMP_CALL_LST_ID    ,
  CAMP_TYPE_CD        ,
  CONSUME_END_DT      CHAR  date_format DATE mask "MM/DD/YYYY hh24:mi:ss" NULLIF  CONSUME_END_DT = BLANKS ,
  CONSUME_START_DT    CHAR  date_format DATE mask "MM/DD/YYYY hh24:mi:ss" NULLIF  PROG_END_DT = BLANKS ,
  COST_CURCY_CD       ,
  COST_EXCH_DT        CHAR  date_format DATE mask "MM/DD/YYYY hh24:mi:ss" NULLIF  COST_EXCH_DT = BLANKS ,
  COUPON_DROP_FLG     ,
  CUST_TRGT_METH_CD   ,
  CUST_TRGT_TYPE_CD   ,
  DEFAULT_OPTY_NAME   ,
  DESC_TEXT           ,
  DESIRED_NUM_CONS    ,
  DESIRED_PCT_OF_SEG  ,
  DISPLAY_FLG         ,
  DNIS_NUMBER         ,
  ESCL_RULE_ID        ,
  FEATURE_FLG         ,
  INTEGRATION_ID      ,
  INT_OU_ID           ,
  LOC                 ,
  NUM_CONTACTS        ,
  OBJECTIVE           ,
  PACKAGE_DESC_TEXT   ,
  PAR_SRC_ID          ,
  PERIOD_ID           ,
  PREDICT_CONV_RATE   ,
  PREDICT_COST_AMT    ,
  PREDICT_FIXED_COST  ,
  PREDICT_NUM_CONS    ,
  PREDICT_RESP_RATE   ,
  PREDICT_REVN_AMT    ,
  PREDICT_ROI_AMT     ,
  PREDICT_SALE_PRICE  ,
  PREDICT_UNIT_CONTR  ,
  PREDICT_VAR_I_COST  ,
  PREDICT_VAR_O_COST  ,
  PREF_LANG_ID        ,
  PROG_END_DT         CHAR  date_format DATE mask "MM/DD/YYYY hh24:mi:ss" NULLIF  PROG_END_DT = BLANKS ,
  PROG_START_DT       CHAR  date_format DATE mask "MM/DD/YYYY hh24:mi:ss" NULLIF  PROG_START_DT  = BLANKS ,
  PROMO_NUM           ,
  PROMO_PRI_LST_ID    ,
  PR_ACCNT_ID         ,
  PR_CALL_LST_ID      ,
  PR_CS_PATH_ID       ,
  PR_DMND_CRT_PRG_ID  ,
  PR_D_NOTE_ID        ,
  PR_POSTN_ID         ,
  PR_PROD_INT_ID      ,
  PR_PROD_LN_ID       ,
  PR_REP_DNRM_FLG     ,
  PR_REP_MANL_FLG     ,
  PR_REP_SYS_FLG      ,
  PR_SCRIPT_NOTE_ID   ,
  PR_TERR_ID          ,
  PURPOSE             ,
  REGION_CD           ,
  RESPONSE_TYPE       ,
  REVN_GOAL           ,
  REVN_GOAL_DT        CHAR  date_format DATE mask "MM/DD/YYYY hh24:mi:ss" NULLIF  REVN_GOAL_DT  = BLANKS ,
  SHIP_END_DT         CHAR  date_format DATE mask "MM/DD/YYYY hh24:mi:ss" NULLIF  SHIP_END_DT   = BLANKS ,
  SHIP_START_DT       CHAR  date_format DATE mask "MM/DD/YYYY hh24:mi:ss" NULLIF  SHIP_START_DT = BLANKS ,
  SMPLNG_SORT_BY_FLD  ,
  SMPLNG_TYPE_CD      ,
  SPEC_ADVERT_FLG     ,
  SPEC_PACKAGE_FLG    ,
  SRC_CD              ,
  STATUS_CD           ,
  TARGET              ,
  TGT_CALLS_PER_DAY   ,
  TGT_TOTAL_CALLS     ,
  TMP_CALC_TEXT       ,
  TMP_PRI_RDX_FLG     ,
  TMP_PRI_RDX_PCT     ,
  TOTAL_COST          ,
  ULT_PAR_SRC_ID      ,
  X_ATTRIB_01         ,
  X_ATTRIB_02         ,
  X_ATTRIB_03         ,
  X_ATTRIB_04         ,
  X_ATTRIB_05         ,
  X_ATTRIB_06         ,
  X_ATTRIB_07         ,
  X_ATTRIB_08         ,
  X_ATTRIB_09         ,
  X_ATTRIB_10         ,
  X_ATTRIB_11         ,
  X_ATTRIB_12         ,
  X_ATTRIB_13         ,
  X_ATTRIB_14         ,
  X_ATTRIB_15         ,
  X_ATTRIB_16         ,
  X_ATTRIB_17         ,
  X_ATTRIB_18         ,
  X_ATTRIB_19         ,
  X_ATTRIB_20         ,
  X_ATTRIB_21         ,
  X_ATTRIB_22         ,
  X_ATTRIB_23         ,
  X_ATTRIB_24         ,
  X_ATTRIB_25         ,
  X_ATTRIB_26         ,
  X_ATTRIB_27         ,
  X_ATTRIB_28         ,
  X_ATTRIB_29         ,
  X_ATTRIB_30         CHAR  date_format DATE mask "MM/DD/YYYY hh24:mi:ss" NULLIF  X_ATTRIB_30  = BLANKS ,
  X_ATTRIB_31         CHAR  date_format DATE mask "MM/DD/YYYY hh24:mi:ss" NULLIF  X_ATTRIB_31  = BLANKS ,
  X_ATTRIB_32         CHAR  date_format DATE mask "MM/DD/YYYY hh24:mi:ss" NULLIF  X_ATTRIB_32  = BLANKS ,
  X_ATTRIB_33         CHAR  date_format DATE mask "MM/DD/YYYY hh24:mi:ss" NULLIF  X_ATTRIB_33  = BLANKS ,
  X_ATTRIB_34         CHAR  date_format DATE mask "MM/DD/YYYY hh24:mi:ss" NULLIF  X_ATTRIB_34  = BLANKS ,
  X_ATTRIB_35         CHAR  date_format DATE mask "MM/DD/YYYY hh24:mi:ss" NULLIF  X_ATTRIB_35  = BLANKS ,
  X_ATTRIB_36         CHAR  date_format DATE mask "MM/DD/YYYY hh24:mi:ss" NULLIF  X_ATTRIB_36  = BLANKS ,
  X_ATTRIB_37         CHAR  date_format DATE mask "MM/DD/YYYY hh24:mi:ss" NULLIF  X_ATTRIB_37  = BLANKS ,
  X_ATTRIB_38         CHAR  date_format DATE mask "MM/DD/YYYY hh24:mi:ss" NULLIF  X_ATTRIB_38  = BLANKS ,
  X_ATTRIB_39         CHAR  date_format DATE mask "MM/DD/YYYY hh24:mi:ss" NULLIF  X_ATTRIB_39  = BLANKS ,
  X_ATTRIB_40         CHAR  date_format DATE mask "MM/DD/YYYY hh24:mi:ss" NULLIF  X_ATTRIB_40  = BLANKS ,
  X_ATTRIB_41         ,
  X_ATTRIB_42         ,
  X_ATTRIB_43         ,
  X_ATTRIB_44         ,
  X_ATTRIB_45         ,
  X_ATTRIB_46         ,
  X_ATTRIB_47         ,
  X_ATTRIB_48         ,
  X_ATTRIB_49         ,
  X_ATTRIB_50         ,
  X_ATTRIB_51         ,
  X_BU_ID             ,       
  ACTL_AMT_EXCH_DT    CHAR  date_format DATE mask "MM/DD/YYYY hh24:mi:ss" NULLIF  ACTL_AMT_EXCH_DT  = BLANKS ,
  ACTL_CONV_RATE      ,
  ACTL_COST_AMT       ,
  ACTL_FIXED_COST     ,
  ACTL_NUM_CONTACTS   ,
  ACTL_QTY            ,
  ACTL_SALE_PRICE     ,
  ACTL_UNIT_CONTR     ,
  ACTL_VAR_I_COST     ,
  ACTL_VAR_O_COST     ,
  AMT_CURCY_CD        ,
  ASGN_RULE_GRP_ID    ,
  BUDGET_PERIOD_ID    ,
  CHMPINTV_ID         ,
  COLLAB_DESC_TEXT    ,
  COMMENTS            ,
  CRSE_ID             ,
  CTLG_CAT_ID         ,
  CUR_WF_PROCESS_ID   ,
  CURRENT_TARGET_NUM  ,
  DFLT_OWNER_BU_ID    ,
  DFLT_OWNER_PSTN_ID  ,
  DNIS_LEADER         ,
  DNIS_PASSCODE       ,
  DNIS_REPLAY_NUM     ,
  DNIS_REPLAY_TS      CHAR  date_format DATE mask "MM/DD/YYYY hh24:mi:ss" NULLIF  DNIS_REPLAY_TS  = BLANKS ,
  DT_LAG              ,
  DT_LAG_UNITS_CD     ,
  EAI_LST_FMT_ID      ,
  EST_AMT_EXCH_DT     CHAR  date_format DATE mask "MM/DD/YYYY hh24:mi:ss" NULLIF  EST_AMT_EXCH_DT = BLANKS ,
  EXEC_APPR_STAT_CD   ,
  EXECUTION_STAT_CD   ,
  FCST_SALE_PRICE     ,
  FILTER_ID           ,
  FIXED_COST_TYPE_CD  ,
  INDIR_ACCNT_ID      ,
  LAYOUT              ,
  MEDIA_TYPE_CD       ,
  MKTG_APPR_STAT_CD   ,
  ORG_PROD_ID         ,
  OTH_COST_DESC       ,
  OWNERSHIP_TYPE_CD   ,
  PCT_CODED_FCST      ,
  PCT_CODED_RESP      ,
  PLAN_TYPE_CD        ,
  PR_LST_FMT_ID       ,
  PR_MDF_ID           ,
  PR_PLAN_ITEM_ID     ,
  PR_PRTNR_ID         ,
  PR_TRGT_INDUST_ID   ,
  PREF_UOM_CD         ,
  PROD_ID             ,
  PROMO_HIST_TBL_ID   ,
  REPEAT_FREQ         ,
  REPEAT_TYPE_CD      ,
  REPEAT_UNTIL        ,
  REV_NUM             ,
  REVN_GOAL_TGT_DT    CHAR  date_format DATE mask "MM/DD/YYYY hh24:mi:ss" NULLIF  REVN_GOAL_TGT_DT = BLANKS ,
  SRC_CD_FMT_ID       ,
  SRTFAM_ID           ,
  SRTFAM_LVL_ID       ,
  TARGET_ROI_AMT      ,
  TMPL_ID             ,
  TOTAL_FUND_AMT      ,
  TRGT_MKT_SEG_ID     ,
  TRGT_QTY            ,
  USER_KEY_TBL_ID     ,
  ACTIVE_FLG          ,
  ALL_ACCNT_FLG       ,
  AUTO_EST_CNTS_FLG   ,
  BU_ID               ,
  CHECK_FST_STG_FLG   ,
  CLEAN_FILE_FLG      ,
  CONPRSP_DIRTY_FLG   ,
  COPY_TO_OCCUR_FLG   ,
  EXCL_STG_FLG        ,
  OWNER_EDIT_FLG      ,
  PARTNER_EDIT_FLG    ,
  PUBLISH_FLG         ,
  READ_ONLY_FLG       ,
  RTE_CONTACTS_FLG    ,
  RTE_PRSP_CONS_FLG   ,
  SEBL_DB_FLG         ,
  SRC_NUM             ,
  STG_FUNNEL_FLG      ,
  TRACK_SEND_FLG      ,
  ACTL_REVN_CURCY_CD  ,
  APPL_WAVELAG_FLG    ,
  BDGT_ALLOC_PCT      ,
  CAMP_ALLOC_LIMIT    ,
  CAMP_CAT_CD         ,
  DB_LAST_UPD         CHAR  date_format DATE mask "MM/DD/YYYY hh24:mi:ss" NULLIF  DB_LAST_UPD  = BLANKS ,
  DB_LAST_UPD_SRC     ,
  ENFRC_APPR_FLG      ,
  FLOWCHART_CNCTR     ,
  FUNNEL_STAGE_ID     ,
  GENRT_SRC_CD_FLG    ,
  LAUNCHED_TS         CHAR  date_format DATE mask "MM/DD/YYYY hh24:mi:ss" NULLIF  LAUNCHED_TS  = BLANKS ,
  LOAD_BEHAVIOR_CD    ,
  MEDIA_SUBTYPE_CD    ,
  MKTG_BDGT_REQ_ID    ,
  MKTG_PLAN_ID        ,
  MKTG_TMPL_FLG       ,
  MKTG_TMPL_ID        ,
  MUTL_EXCLUSIVE_FLG  ,
  NONEXEC_CAMP_FLG    ,
  NXTSCHD_LAUNCH_TS   CHAR  date_format DATE mask "MM/DD/YYYY hh24:mi:ss" NULLIF  NXTSCHD_LAUNCH_TS  = BLANKS ,
  PCT_ALLOC_FLG       ,
  PR_MKTG_OFFR_ID     ,
  PRE_LOAD_TSK_WF_ID  ,
  PRIORITY_CD         ,
  PROMO_NAME          ,
  PST_LNCH_TSK_WF_ID  ,
  PST_LOAD_TSK_WF_ID  ,
  RECURRING_FLG       ,
  REGION_ID           ,
  REQUESTED_BDGT_AMT  ,
  RPT_ACROSSLOAD_FLG  ,
  RPT_WITHINLOAD_FLG  ,
  SPONSOR_EMP_ID      ,
  SRC_CD_MAX_NUM      ,
  STANDALONE_FLG      ,
  STAT_CD             ,
  SUBMITTED_BY        ,
  SUBMITTED_DT        CHAR  date_format DATE mask "MM/DD/YYYY hh24:mi:ss" NULLIF  SUBMITTED_DT  = BLANKS ,
  SUPPRESSN_LIST_CD   ,
  TRIGGER_FLG         ,
  TRNG_STATUS_CD      ,
  USE_EXT_FILE_FLG  
      )
           )
     LOCATION (EDM_DATA_DIR:'src_sbl_s_src.dat')
  )
REJECT LIMIT 0
NOPARALLEL
NOMONITORING;


GRANT ALTER, SELECT ON SRC_SBL_S_SRC  TO DWLOADER     		;
GRANT ALTER, SELECT ON SRC_SBL_S_SRC  TO EDM_OWNER      	;
GRANT ALTER, SELECT ON SRC_SBL_S_SRC  TO STAGE_OWNER_SELECT	;

SPOOL OFF; 
