SET SERVEROUTPUT ON
SET ECHO ON
SET TIMING ON
DEFINE &&env = &1

SPOOL /i1/&&env/hub/logs/SRC_TDM_HPD0TAX.tbl.log ; 

DROP TABLE SRC_TDM_HPD0TAX CASCADE CONSTRAINTS;

CREATE TABLE SRC_TDM_HPD0TAX
(
  COMPANY_ID                NUMBER(6),
  WEX_TRANSACTION_ID        VARCHAR2(200 BYTE),
  WEX_TRANSACTION_SEQ_NBR   NUMBER(38),
  CLIENT_MERCHANT           VARCHAR2(2 BYTE),
  CLIENT_STATE              NUMBER(2),
  CLIENT_ZEROES             NUMBER(2),
  ACCOUNT_NUMBER            NUMBER(6),
  CHECK_DIGIT               NUMBER(1),
  VEHICLE_NUMBER            NUMBER(4),
  CARD_SUFFIX               NUMBER(1),
  TRANSACTION_DATE          VARCHAR2(6 BYTE),
  TRANSACTION_TIME          VARCHAR2(6 BYTE),
  TICKET_NUMBER             VARCHAR2(10 BYTE),
  POSTING_DATE              DATE,
  PREVIOUS_POSTING_DATE     DATE,
  TRANS_SEQ_NUM             VARCHAR2(6 BYTE),
  RECALC_POSTING_DATE       DATE,
  RECALC_SEQ_NUM            NUMBER(3),
  MERCHANT_PREFIX           VARCHAR2(2 BYTE),
  MERCHANT_SETTLE_ENTITY    NUMBER(3),
  WEX_SITE_NUM              NUMBER(3),
  JURISDICTION_CODE_1       VARCHAR2(2 BYTE),
  JURISDICTION_CODE_2       VARCHAR2(3 BYTE),
  CITY                      VARCHAR2(18 BYTE),
  ZIP_CODE                  VARCHAR2(9 BYTE),
  PRODUCT_CODE              NUMBER(2),
  TAX_FUEL_TYPE_CODE        VARCHAR2(2 BYTE),
  GALLONS_UNITS             NUMBER(8,3),
  GROSS_DOLLARS             NUMBER(8,2),
  VOLUME_DISCOUNT_AMT       NUMBER(6,2),
  WEX_FEE_AMOUNT            NUMBER(7,2),
  TAX_TYPE_CODE_1           VARCHAR2(2 BYTE),
  TAX_RATE_1                NUMBER(6,5),
  TAX_AMT_1                 NUMBER(8,2),
  SHOW_FLAG1                VARCHAR2(1 BYTE),
  REPORT_TAX_TYPE_CODE_1    VARCHAR2(1 BYTE),
  TAX_EXEMPT_INDICATOR_1    VARCHAR2(2 BYTE),
  TAX_RECV_ACCOUNT_CODE_1   VARCHAR2(2 BYTE),
  FILING_INDICATOR_1        VARCHAR2(1 BYTE),
  TAX_TYPE_CODE_2           VARCHAR2(2 BYTE),
  TAX_RATE_2                NUMBER(6,5),
  TAX_AMT_2                 NUMBER(8,2),
  SHOW_FLAG2                VARCHAR2(1 BYTE),
  REPORT_TAX_TYPE_CODE_2    VARCHAR2(1 BYTE),
  TAX_EXEMPT_INDICATOR_2    VARCHAR2(2 BYTE),
  TAX_RECV_ACCOUNT_CODE_2   VARCHAR2(2 BYTE),
  FILING_INDICATOR_2        VARCHAR2(1 BYTE),
  TAX_TYPE_CODE_3           VARCHAR2(2 BYTE),
  TAX_RATE_3                NUMBER(6,5),
  TAX_AMT_3                 NUMBER(8,2),
  SHOW_FLAG3                VARCHAR2(1 BYTE),
  REPORT_TAX_TYPE_CODE_3    VARCHAR2(1 BYTE),
  TAX_EXEMPT_INDICATOR_3    VARCHAR2(2 BYTE),
  TAX_RECV_ACCOUNT_CODE_3   VARCHAR2(2 BYTE),
  FILING_INDICATOR_3        VARCHAR2(1 BYTE),
  TAX_TYPE_CODE_4           VARCHAR2(2 BYTE),
  TAX_RATE_4                NUMBER(6,5),
  TAX_AMT_4                 NUMBER(8,2),
  SHOW_FLAG4                VARCHAR2(1 BYTE),
  REPORT_TAX_TYPE_CODE_4    VARCHAR2(1 BYTE),
  TAX_EXEMPT_INDICATOR_4    VARCHAR2(2 BYTE),
  TAX_RECV_ACCOUNT_CODE_4   VARCHAR2(2 BYTE),
  FILING_INDICATOR_4        VARCHAR2(1 BYTE),
  TAX_TYPE_CODE_5           VARCHAR2(2 BYTE),
  TAX_RATE_5                NUMBER(6,5),
  TAX_AMT_5                 NUMBER(8,2),
  SHOW_FLAG5                VARCHAR2(1 BYTE),
  REPORT_TAX_TYPE_CODE_5    VARCHAR2(1 BYTE),
  TAX_EXEMPT_INDICATOR_5    VARCHAR2(2 BYTE),
  TAX_RECV_ACCOUNT_CODE_5   VARCHAR2(2 BYTE),
  FILING_INDICATOR_5        VARCHAR2(1 BYTE),
  TAX_TYPE_CODE_6           VARCHAR2(2 BYTE),
  TAX_RATE_6                NUMBER(6,5),
  TAX_AMT_6                 NUMBER(8,2),
  SHOW_FLAG6                VARCHAR2(1 BYTE),
  REPORT_TAX_TYPE_CODE_6    VARCHAR2(1 BYTE),
  TAX_EXEMPT_INDICATOR_6    VARCHAR2(2 BYTE),
  TAX_RECV_ACCOUNT_CODE_6   VARCHAR2(2 BYTE),
  FILING_INDICATOR_6        VARCHAR2(1 BYTE),
  TAX_TYPE_CODE_7           VARCHAR2(2 BYTE),
  TAX_RATE_7                NUMBER(6,5),
  TAX_AMT_7                 NUMBER(8,2),
  SHOW_FLAG7                VARCHAR2(1 BYTE),
  REPORT_TAX_TYPE_CODE_7    VARCHAR2(1 BYTE),
  TAX_EXEMPT_INDICATOR_7    VARCHAR2(2 BYTE),
  TAX_RECV_ACCOUNT_CODE_7   VARCHAR2(2 BYTE),
  FILING_INDICATOR_7        VARCHAR2(1 BYTE),
  TAX_TYPE_CODE_8           VARCHAR2(2 BYTE),
  TAX_RATE_8                NUMBER(6,5),
  TAX_AMT_8                 NUMBER(8,2),
  SHOW_FLAG8                VARCHAR2(1 BYTE),
  REPORT_TAX_TYPE_CODE_8    VARCHAR2(1 BYTE),
  TAX_EXEMPT_INDICATOR_8    VARCHAR2(2 BYTE),
  TAX_RECV_ACCOUNT_CODE_8   VARCHAR2(2 BYTE),
  FILING_INDICATOR_8        VARCHAR2(1 BYTE),
  TAX_TYPE_CODE_9           VARCHAR2(2 BYTE),
  TAX_RATE_9                NUMBER(6,5),
  TAX_AMT_9                 NUMBER(8,2),
  SHOW_FLAG9                VARCHAR2(1 BYTE),
  REPORT_TAX_TYPE_CODE_9    VARCHAR2(1 BYTE),
  TAX_EXEMPT_INDICATOR_9    VARCHAR2(2 BYTE),
  TAX_RECV_ACCOUNT_CODE_9   VARCHAR2(2 BYTE),
  FILING_INDICATOR_9        VARCHAR2(1 BYTE),
  TAX_TYPE_CODE_10          VARCHAR2(2 BYTE),
  TAX_RATE_10               NUMBER(6,5),
  TAX_AMT_10                NUMBER(8,2),
  SHOW_FLAG10               VARCHAR2(1 BYTE),
  REPORT_TAX_TYPE_CODE_10   VARCHAR2(1 BYTE),
  TAX_EXEMPT_INDICATOR_10   VARCHAR2(2 BYTE),
  TAX_RECV_ACCOUNT_CODE_10  VARCHAR2(2 BYTE),
  FILING_INDICATOR_10       VARCHAR2(1 BYTE),
  TAX_TYPE_CODE_11          VARCHAR2(2 BYTE),
  TAX_RATE_11               NUMBER(6,5),
  TAX_AMT_11                NUMBER(8,2),
  SHOW_FLAG11               VARCHAR2(1 BYTE),
  REPORT_TAX_TYPE_CODE_11   VARCHAR2(1 BYTE),
  TAX_EXEMPT_INDICATOR_11   VARCHAR2(2 BYTE),
  TAX_RECV_ACCOUNT_CODE_11  VARCHAR2(2 BYTE),
  FILING_INDICATOR_11       VARCHAR2(1 BYTE),
  TAX_TYPE_CODE_12          VARCHAR2(2 BYTE),
  TAX_RATE_12               NUMBER(6,5),
  TAX_AMT_12                NUMBER(8,2),
  SHOW_FLAG12               VARCHAR2(1 BYTE),
  REPORT_TAX_TYPE_CODE_12   VARCHAR2(1 BYTE),
  TAX_EXEMPT_INDICATOR_12   VARCHAR2(2 BYTE),
  TAX_RECV_ACCOUNT_CODE_12  VARCHAR2(2 BYTE),
  FILING_INDICATOR_12       VARCHAR2(1 BYTE),
  TAX_TYPE_CODE_13          VARCHAR2(2 BYTE),
  TAX_RATE_13               NUMBER(6,5),
  TAX_AMT_13                NUMBER(8,2),
  SHOW_FLAG13               VARCHAR2(1 BYTE),
  REPORT_TAX_TYPE_CODE_13   VARCHAR2(1 BYTE),
  TAX_EXEMPT_INDICATOR_13   VARCHAR2(2 BYTE),
  TAX_RECV_ACCOUNT_CODE_13  VARCHAR2(2 BYTE),
  FILING_INDICATOR_13       VARCHAR2(1 BYTE),
  TAX_TYPE_CODE_14          VARCHAR2(2 BYTE),
  TAX_RATE_14               NUMBER(6,5),
  TAX_AMT_14                NUMBER(8,2),
  SHOW_FLAG14               VARCHAR2(1 BYTE),
  REPORT_TAX_TYPE_CODE_14   VARCHAR2(1 BYTE),
  TAX_EXEMPT_INDICATOR_14   VARCHAR2(2 BYTE),
  TAX_RECV_ACCOUNT_CODE_14  VARCHAR2(2 BYTE),
  FILING_INDICATOR_14       VARCHAR2(1 BYTE),
  TAX_TYPE_CODE_15          VARCHAR2(2 BYTE),
  TAX_RATE_15               NUMBER(6,5),
  TAX_AMT_15                NUMBER(8,2),
  SHOW_FLAG15               VARCHAR2(1 BYTE),
  REPORT_TAX_TYPE_CODE_15   VARCHAR2(1 BYTE),
  TAX_EXEMPT_INDICATOR_15   VARCHAR2(2 BYTE),
  TAX_RECV_ACCOUNT_CODE_15  VARCHAR2(2 BYTE),
  FILING_INDICATOR_15       VARCHAR2(1 BYTE),
  STATE_SPECIAL_DESC        VARCHAR2(35 BYTE),
  COUNTY_SPECIAL_DESC       VARCHAR2(35 BYTE),
  CITY_SPECIAL_DESC         VARCHAR2(35 BYTE),
  FED_TAX_ID                VARCHAR2(10 BYTE),
  BP_TICKET                 VARCHAR2(9 BYTE),
  ODOMETER                  NUMBER(6),
  NET_TRAN_TYPE             NUMBER(2),
  WEX_TRAN_CODE             NUMBER(2),
  CYCLE_CODE                NUMBER(2),
  PIN_PLAIN                 NUMBER(6),
  FUELING_TYPE_CODE         VARCHAR2(1 BYTE),
  AGENCY_CODE               VARCHAR2(5 BYTE),
  CONTROL_CD                NUMBER(2),
  TAX_RECALC_REASON_CODE    VARCHAR2(1 BYTE),
  IMPERIAL_FUEL_TYPE        VARCHAR2(1 BYTE),
  COUNTRY_CODE              VARCHAR2(2 BYTE),
  CURRENCY_CODE             VARCHAR2(3 BYTE),
  EXCHANGE_RATE             NUMBER(6,5),
  TAX_INCLUSIVE_FLAG        VARCHAR2(1 BYTE),
  TAX_TYPE_FLAG             VARCHAR2(1 BYTE),
  REPRICE_FLAG              VARCHAR2(1 BYTE),
  LU_PROGRAM                VARCHAR2(8 BYTE),
  LU_DATE                   DATE,
  LU_TIME                   VARCHAR2(8 BYTE),
  LU_USERID                 VARCHAR2(8 BYTE)
)
ORGANIZATION EXTERNAL
  (  TYPE ORACLE_LOADER
     DEFAULT DIRECTORY EDM_DATA_DIR
     ACCESS PARAMETERS 
       ( RECORDS DELIMITED BY NEWLINE
    LOGFILE          EDM_log_dir:'SRC_TDM_HPD0TAX.log'
    BADFILE          EDM_log_dir:'SRC_TDM_HPD0TAX.bad'
    DISCARDFILE   EDM_log_dir:'SRC_TDM_HPD0TAX.dis'
    FIELDS
      (  COMPANY_ID                position(1:6)  ,
         WEX_TRANSACTION_ID        position(7:46) ,
         wex_transaction_seq_nbr   position(3:3) ,
         CLIENT_MERCHANT           position(7:8)  ,
         CLIENT_STATE              position(9:10) ,
         CLIENT_ZEROES             position(11:12),
         ACCOUNT_NUMBER            position(13:18),
         CHECK_DIGIT               position(19:19),
         VEHICLE_NUMBER            position(20:23),
         CARD_SUFFIX               position(24:24),
         TRANSACTION_DATE          position(25:30),
         TRANSACTION_TIME          position(31:36),
         TICKET_NUMBER             position(37:46),
         POSTING_DATE              position(49:56)   CHAR  date_format DATE mask "RRRRMMDD",
         PREVIOUS_POSTING_DATE     position(57:64)   CHAR  date_format DATE mask "YYYYMMDD",
         TRANS_SEQ_NUM             position(99:104)  ,  
         RECALC_POSTING_DATE       position(105:112) CHAR  date_format DATE mask "RRRRMMDD",  
         RECALC_SEQ_NUM            position(113:115) ,  
         MERCHANT_PREFIX           position(116:117) ,  
         MERCHANT_SETTLE_ENTITY    position(118:120) ,  
         WEX_SITE_NUM              position(121:123) ,  
         JURISDICTION_CODE_1       position(124:125) ,
         JURISDICTION_CODE_2       position(126:128) ,
         CITY                      position(129:146) ,
         ZIP_CODE                  position(147:155) , 
         PRODUCT_CODE              position(156:157) ,
         TAX_FUEL_TYPE_CODE        position(158:159) ,
         GALLONS_UNITS             position(160:167) zoned(8,3),  
         GROSS_DOLLARS             position(168:175) zoned(8,2),  
         VOLUME_DISCOUNT_AMT       position(176:181) zoned(6,2),  
         WEX_FEE_AMOUNT            position(182:189) zoned(8,2),  
         TAX_TYPE_CODE_1           position(190:191) ,
         TAX_RATE_1                position(192:197) zoned(6,5),
         TAX_AMT_1                 position(198:205) zoned(8,2),
         show_flag1                position(206:206) ,  
         REPORT_TAX_TYPE_CODE_1    position(207:207) ,
         TAX_EXEMPT_INDICATOR_1    position(208:208) ,
         TAX_RECV_ACCOUNT_CODE_1   position(209:209) ,
         FILING_INDICATOR_1        position(210:210),
         TAX_TYPE_CODE_2           position(212:213) ,
         TAX_RATE_2                position(214:219) zoned (6,5),
         TAX_AMT_2                 position(220:227) zoned(8,2),
         show_flag2                position(228:228) ,  
         REPORT_TAX_TYPE_CODE_2    position(229:229) ,
         TAX_EXEMPT_INDICATOR_2    position(230:230) ,
         TAX_RECV_ACCOUNT_CODE_2   position(231:231) ,
         FILING_INDICATOR_2        position(232:232),
         TAX_TYPE_CODE_3           position(234:235) ,
         TAX_RATE_3                position(236:241) zoned (6,5) ,
         TAX_AMT_3                 position(242:249) zoned(8,2),
         show_flag3                position(250:250) ,  
         REPORT_TAX_TYPE_CODE_3    position(251:251) ,
         TAX_EXEMPT_INDICATOR_3    position(252:252) ,
         TAX_RECV_ACCOUNT_CODE_3   position(253:253) ,
         FILING_INDICATOR_3        position(254:254),
         TAX_TYPE_CODE_4           position(256:257) ,
         TAX_RATE_4                position(258:263) zoned(6,5),
         TAX_AMT_4                 position(264:271) zoned(8,2),
         show_flag4                position(272:272) ,  
         REPORT_TAX_TYPE_CODE_4    position(273:273) ,
         TAX_EXEMPT_INDICATOR_4    position(274:274) ,
         TAX_RECV_ACCOUNT_CODE_4   position(275:275) ,
         FILING_INDICATOR_4        position(276:276),
         TAX_TYPE_CODE_5           position(278:279) ,
         TAX_RATE_5                position(280:285) zoned(6,5),
         TAX_AMT_5                 position(286:293) zoned(8,2),
         show_flag5                position(294:294) ,  
         REPORT_TAX_TYPE_CODE_5    position(295:295) ,
         TAX_EXEMPT_INDICATOR_5    position(296:296) ,
         TAX_RECV_ACCOUNT_CODE_5   position(297:297) ,
         FILING_INDICATOR_5        position(298:298),
         TAX_TYPE_CODE_6           position(300:301) ,
         TAX_RATE_6                position(302:307) zoned(6,5),
         TAX_AMT_6                 position(308:315) zoned(8,2),
         show_flag6                position(316:316) ,  
         REPORT_TAX_TYPE_CODE_6    position(317:317) ,
         TAX_EXEMPT_INDICATOR_6    position(318:318) ,
         TAX_RECV_ACCOUNT_CODE_6   position(319:319) ,
         FILING_INDICATOR_6        position(320:320),
         TAX_TYPE_CODE_7           position(322:323) ,
         TAX_RATE_7                position(324:329) zoned(6,5),
         TAX_AMT_7                 position(330:337) zoned(8,2),
         show_flag7                position(338:338) ,  
         REPORT_TAX_TYPE_CODE_7    position(339:339) ,
         TAX_EXEMPT_INDICATOR_7    position(340:340) ,
         TAX_RECV_ACCOUNT_CODE_7   position(341:341) ,
         FILING_INDICATOR_7        position(342:342),
         TAX_TYPE_CODE_8           position(344:345) ,
         TAX_RATE_8                position(346:351) zoned(6,5),
         TAX_AMT_8                 position(352:359) zoned(8,2),
         show_flag8                position(360:360) ,  
         REPORT_TAX_TYPE_CODE_8    position(361:361) ,
         TAX_EXEMPT_INDICATOR_8    position(362:362) ,
         TAX_RECV_ACCOUNT_CODE_8   position(363:363) ,
         FILING_INDICATOR_8        position(364:364),
         TAX_TYPE_CODE_9           position(366:367) ,
         TAX_RATE_9                position(368:373) zoned(6,5),
         TAX_AMT_9                 position(374:381) zoned(8,2),
         show_flag9                position(382:382) ,  
         REPORT_TAX_TYPE_CODE_9    position(383:383) ,
         TAX_EXEMPT_INDICATOR_9    position(384:384) ,
         TAX_RECV_ACCOUNT_CODE_9   position(385:385) ,
         FILING_INDICATOR_9        position(386:386),
         TAX_TYPE_CODE_10          position(388:389) ,
         TAX_RATE_10               position(390:395) zoned(6,5),
         TAX_AMT_10                position(396:403) zoned(8,2),
         show_flag10               position(404:404) ,  
         REPORT_TAX_TYPE_CODE_10   position(405:405) ,
         TAX_EXEMPT_INDICATOR_10   position(406:406) ,
         TAX_RECV_ACCOUNT_CODE_10  position(407:407) ,
         FILING_INDICATOR_10       position(408:408),
         TAX_TYPE_CODE_11          position(410:411) ,
         TAX_RATE_11               position(412:417) zoned(6,5),
         TAX_AMT_11                position(418:425) zoned(8,2),
         show_flag11               position(426:426) ,  
         REPORT_TAX_TYPE_CODE_11   position(427:427) ,
         TAX_EXEMPT_INDICATOR_11   position(428:428) ,
         TAX_RECV_ACCOUNT_CODE_11  position(429:429) ,
         FILING_INDICATOR_11       position(430:430),
         TAX_TYPE_CODE_12          position(432:433) ,
         TAX_RATE_12               position(434:439) zoned(6,5),
         TAX_AMT_12                position(440:447) zoned(8,2),
         show_flag12               position(448:448) ,  
         REPORT_TAX_TYPE_CODE_12   position(449:449) ,
         TAX_EXEMPT_INDICATOR_12   position(450:450) ,
         TAX_RECV_ACCOUNT_CODE_12  position(451:451) ,
         FILING_INDICATOR_12       position(452:452),
         TAX_TYPE_CODE_13          position(454:455) ,
         TAX_RATE_13               position(456:461) zoned(6,5),
         TAX_AMT_13                position(462:469) zoned(8,2),
         show_flag13               position(470:470) ,  
         REPORT_TAX_TYPE_CODE_13   position(471:471) ,
         TAX_EXEMPT_INDICATOR_13   position(472:472) ,
         TAX_RECV_ACCOUNT_CODE_13  position(473:473) ,
         FILING_INDICATOR_13       position(474:474),
         TAX_TYPE_CODE_14          position(476:477) ,
         TAX_RATE_14               position(478:483) zoned(6,5),
         TAX_AMT_14                position(484:491) zoned(8,2),
         show_flag14               position(492:492) ,  
         REPORT_TAX_TYPE_CODE_14   position(493:493) ,
         TAX_EXEMPT_INDICATOR_14   position(494:494) ,
         TAX_RECV_ACCOUNT_CODE_14  position(495:495) ,
         FILING_INDICATOR_14       position(496:496),
         TAX_TYPE_CODE_15          position(498:499) ,
         TAX_RATE_15               position(500:505) zoned(6,5),
         TAX_AMT_15                position(506:513) zoned(8,2),
         show_flag15               position(514:514) ,  
         REPORT_TAX_TYPE_CODE_15   position(515:515) ,
         TAX_EXEMPT_INDICATOR_15   position(516:516) ,
         TAX_RECV_ACCOUNT_CODE_15  position(517:517) ,
         FILING_INDICATOR_15       position(518:518),
         STATE_SPECIAL_DESC        position(520:554) ,
         COUNTY_SPECIAL_DESC       position(555:589) ,
         CITY_SPECIAL_DESC         position(590:624) ,
         FED_TAX_ID                position(625:634) , 
         BP_TICKET                 position(635:644) , 
         odometer                  position(645:650) , 
         net_tran_type             position(651:652) ,
         wex_tran_code             position(653:654) ,
         CYCLE_CODE                position(655:656) ,
         PIN_PLAIN                 position(657:662) ,
         FUELING_TYPE_CODE         position(663:663) , 
         AGENCY_CODE               position(664:668) , 
         CONTROL_CD                position(669:670) ,
         TAX_RECALC_REASON_CODE    position(671:671) ,
         IMPERIAL_FUEL_TYPE        position(672:672) , 
         COUNTRY_CODE              position(673:674) , 
         currency_code             position(675:677) , 
         exchange_rate             position(678:683) zoned(6,5),  
         tax_inclusive_flag        position(684:684) , 
         tax_type_flag             position(685:685) ,
         REPRICE_FLAG              position(686:686) ,
         Lu_program                position(745:752) ,    
         Lu_date                   position(753:760)  CHAR  date_format DATE mask "RRRRMMDD" ,
         Lu_time                   position(761:768) ,
         Lu_userid                 position(769:776)  
    )  
                                 )
     LOCATION (EDM_DATA_DIR:'hpd0tax.dat')
  )
REJECT LIMIT 0
PARALLEL ( DEGREE 6 INSTANCES 1 )
NOMONITORING;


GRANT ALTER, SELECT ON SRC_TDM_HPD0TAX TO DWLOADER;

GRANT ALTER, SELECT ON SRC_TDM_HPD0TAX TO EDM_OWNER;

GRANT ALTER, SELECT ON SRC_TDM_HPD0TAX TO STAGE_OWNER_SELECT;



SPOOL OFF ; 