,,,,,,REVENUE,,,,COGS,,,,UAR,,,,UAP,,,
SOURCE,PRODUCT,PRODUCT DESCRIPTION,CATEGORY/ACCOUNT DESCRIPTION,Sales & Marketing Product Classification,Sales & Marketing Reporting Categories,ACCOUNT,DEPT,PRODUCT,MRU,ACCOUNT,DEPT,PRODUCT,MRU,ACCOUNT,DEPT,PRODUCT,MRU,ACCOUNT,DEPT,PRODUCT,MRU
EPP,TP4,Card1-Fee Condition,Other Non-Fuel,Non Fuel,Non Fuel,440202,20500,90000,2000,696302,20500,90000,2000,114300,,,,204200,,,
EPP,TP9,Card1-Fee Condition,Other Non-Fuel,Non Fuel,Non Fuel,440202,20500,90000,2000,696302,20500,90000,2000,114300,,,,204200,,,
EPP,10,Petrol,MOGAS,Fuel,Unleaded,440201,20500,90000,2000,696301,20500,90000,2000,114300,,,,204200,,,
EPP,11,Energy Unleaded,MOGAS,Fuel,Unleaded,440201,20500,90000,2000,696301,20500,90000,2000,114300,,,,204200,,,
EPP,12,Energy Sup Unleaded,MOGAS,Fuel,Premium Unleaded,440201,20500,90000,2000,696301,20500,90000,2000,114300,,,,204200,,,
EPP,13,Unleaded,MOGAS,Fuel,Unleaded,440201,20500,90000,2000,696301,20500,90000,2000,114300,,,,204200,,,
EPP,14,Super E10,MOGAS,Fuel,Premium Unleaded,440201,20500,90000,2000,696301,20500,90000,2000,114300,,,,204200,,,
EPP,15,LRP,MOGAS,Fuel,Unleaded,440201,20500,90000,2000,696301,20500,90000,2000,114300,,,,204200,,,
EPP,16,Low Lead Petrol,MOGAS,Fuel,Unleaded,440201,20500,90000,2000,696301,20500,90000,2000,114300,,,,204200,,,
EPP,17,Unleaded,MOGAS,Fuel,Unleaded,440201,20500,90000,2000,696301,20500,90000,2000,114300,,,,204200,,,
EPP,18,Alcohol Additive,Other Fuel,Non Fuel,Non Fuel,440202,20500,90000,2000,696302,20500,90000,2000,114300,,,,204200,,,
EPP,19,Alcohol,Other Fuel,Non Fuel,Non Fuel,440202,20500,90000,2000,696302,20500,90000,2000,114300,,,,204200,,,
EPP,20,Energy Diesel,Diesel,Fuel,Diesel,440200,20500,90000,2000,696300,20500,90000,2000,114300,,,,204200,,,
EPP,21,Energy Diesel,Diesel,Fuel,Diesel,440200,20500,90000,2000,696300,20500,90000,2000,114300,,,,204200,,,
EPP,22,Special Diesel,Diesel,Fuel,Diesel,440200,20500,90000,2000,696300,20500,90000,2000,114300,,,,204200,,,
EPP,23,Energy Sup Diesel,Diesel,Fuel,Premium Diesel,440200,20500,90000,2000,696300,20500,90000,2000,114300,,,,204200,,,
EPP,25,Kerosene,Other Fuel,Non Fuel,Non Fuel,440202,20500,90000,2000,696302,20500,90000,2000,114300,,,,204200,,,
EPP,26,Specific Diesel,Diesel,Fuel,Diesel,440200,20500,90000,2000,696300,20500,90000,2000,114300,,,,204200,,,
EPP,27,Specific Diesel,Diesel,Fuel,Diesel,440200,20500,90000,2000,696300,20500,90000,2000,114300,,,,204200,,,
EPP,28,Specific Diesel,Diesel,Fuel,Diesel,440200,20500,90000,2000,696300,20500,90000,2000,114300,,,,204200,,,
EPP,29,Specific Diesel,Diesel,Fuel,Diesel,440200,20500,90000,2000,696300,20500,90000,2000,114300,,,,204200,,,
EPP,30,Other Fuel,Other Fuel,Non Fuel,Non Fuel,440202,20500,90000,2000,696302,20500,90000,2000,114300,,,,204200,,,
EPP,31,LPG,LPG,Non Fuel,Non Fuel,440202,20500,90000,2000,696302,20500,90000,2000,114300,,,,204200,,,
EPP,32,LPG,LPG,Non Fuel,Non Fuel,440202,20500,90000,2000,696302,20500,90000,2000,114300,,,,204200,,,
EPP,33,Specific Other Fuels,Other Fuel,Non Fuel,Non Fuel,440202,20500,90000,2000,696302,20500,90000,2000,114300,,,,204200,,,
EPP,34,Two Stroke,Other Fuel,Non Fuel,Non Fuel,440202,20500,90000,2000,696302,20500,90000,2000,114300,,,,204200,,,
EPP,35,Adblue,Other Non-Fuel,Non Fuel,Non Fuel,440203,20500,90000,2000,696303,20500,90000,2000,114300,,,,204200,,,
EPP,40,Lubes Oil,Other Non-Fuel,Non Fuel,Non Fuel,440203,20500,90000,2000,696303,20500,90000,2000,114300,,,,204200,,,
EPP,41,Mogas Lubes,Other Non-Fuel,Non Fuel,Non Fuel,440203,20500,90000,2000,696303,20500,90000,2000,114300,,,,204200,,,
EPP,42,Diesel Lubes,Other Non-Fuel,Non Fuel,Non Fuel,440203,20500,90000,2000,696303,20500,90000,2000,114300,,,,204200,,,
EPP,43,Mogas Lubes,Other Non-Fuel,Non Fuel,Non Fuel,440203,20500,90000,2000,696303,20500,90000,2000,114300,,,,204200,,,
EPP,44,Diesel Lubes,Other Non-Fuel,Non Fuel,Non Fuel,440203,20500,90000,2000,696303,20500,90000,2000,114300,,,,204200,,,
EPP,45,Adblue Cannisters,Other Non-Fuel,Non Fuel,Non Fuel,440203,20500,90000,2000,696303,20500,90000,2000,114300,,,,204200,,,
EPP,46,Non-Automotive Lubes,Other Non-Fuel,Non Fuel,Non Fuel,440203,20500,90000,2000,696303,20500,90000,2000,114300,,,,204200,,,
EPP,47,Spec.Lubes&Antifreeze,Other Non-Fuel,Non Fuel,Non Fuel,440203,20500,90000,2000,696303,20500,90000,2000,114300,,,,204200,,,
EPP,48,Antifreeze,Other Non-Fuel,Non Fuel,Non Fuel,440203,20500,90000,2000,696303,20500,90000,2000,114300,,,,204200,,,
EPP,49,Spec.Lubes&Antifreeze,Other Non-Fuel,Non Fuel,Non Fuel,440203,20500,90000,2000,696303,20500,90000,2000,114300,,,,204200,,,
EPP,50,Tyres / Batteries / Accessories,Other Non-Fuel,Non Fuel,Non Fuel,440203,20500,90000,2000,696303,20500,90000,2000,114300,,,,204200,,,
EPP,51,Tyres,Other Non-Fuel,Non Fuel,Non Fuel,440203,20500,90000,2000,696303,20500,90000,2000,114300,,,,204200,,,
EPP,52,Batteries,Other Non-Fuel,Non Fuel,Non Fuel,440203,20500,90000,2000,696303,20500,90000,2000,114300,,,,204200,,,
EPP,53,Accessories,Other Non-Fuel,Non Fuel,Non Fuel,440203,20500,90000,2000,696303,20500,90000,2000,114300,,,,204200,,,
EPP,54,Country Specific TBA,Other Non-Fuel,Non Fuel,Non Fuel,440203,20500,90000,2000,696303,20500,90000,2000,114300,,,,204200,,,
EPP,55,Other Chemicals,Other Non-Fuel,Non Fuel,Non Fuel,440203,20500,90000,2000,696303,20500,90000,2000,114300,,,,204200,,,
EPP,56,Country Specific TBA,Other Non-Fuel,Non Fuel,Non Fuel,440203,20500,90000,2000,696303,20500,90000,2000,114300,,,,204200,,,
EPP,57,Country Specific TBA,Other Non-Fuel,Non Fuel,Non Fuel,440203,20500,90000,2000,696303,20500,90000,2000,114300,,,,204200,,,
EPP,58,Country Specific TBA,Other Non-Fuel,Non Fuel,Non Fuel,440203,20500,90000,2000,696303,20500,90000,2000,114300,,,,204200,,,
EPP,59,Country Specific TBA,Other Non-Fuel,Non Fuel,Non Fuel,440203,20500,90000,2000,696303,20500,90000,2000,114300,,,,204200,,,
EPP,60,Service & Repair,Other Non-Fuel,Non Fuel,Non Fuel,440203,20500,90000,2000,696303,20500,90000,2000,114300,,,,204200,,,
EPP,61,Repair/Labour,Other Non-Fuel,Non Fuel,Non Fuel,440203,20500,90000,2000,696303,20500,90000,2000,114300,,,,204200,,,
EPP,62,Spare Parts,Other Non-Fuel,Non Fuel,Non Fuel,440203,20500,90000,2000,696303,20500,90000,2000,114300,,,,204200,,,
EPP,63,Oil Change,Other Non-Fuel,Non Fuel,Non Fuel,440203,20500,90000,2000,696303,20500,90000,2000,114300,,,,204200,,,
EPP,64,Carwash,Other Non-Fuel,Non Fuel,Non Fuel,440203,20500,90000,2000,696303,20500,90000,2000,114300,,,,204200,,,
EPP,65,Breakdown Services,Other Non-Fuel,Non Fuel,Non Fuel,440203,20500,90000,2000,696303,20500,90000,2000,114300,,,,204200,,,
EPP,66,Towing,Other Non-Fuel,Non Fuel,Non Fuel,440203,20500,90000,2000,696303,20500,90000,2000,114300,,,,204200,,,
EPP,67,Spec.Service&Repair,Other Non-Fuel,Non Fuel,Non Fuel,440203,20500,90000,2000,696303,20500,90000,2000,114300,,,,204200,,,
EPP,68,Spec.Service&Repair,Other Non-Fuel,Non Fuel,Non Fuel,440203,20500,90000,2000,696303,20500,90000,2000,114300,,,,204200,,,
EPP,69,Other Services,Other Non-Fuel,Non Fuel,Non Fuel,440203,20500,90000,2000,696303,20500,90000,2000,114300,,,,204200,,,
EPP,70,Shop Products,Other Non-Fuel,Non Fuel,Non Fuel,440203,20500,90000,2000,696303,20500,90000,2000,114300,,,,204200,,,
EPP,71,Groceries,Other Non-Fuel,Non Fuel,Non Fuel,440203,20500,90000,2000,696303,20500,90000,2000,114300,,,,204200,,,
EPP,72,Drinks,Other Non-Fuel,Non Fuel,Non Fuel,440203,20500,90000,2000,696303,20500,90000,2000,114300,,,,204200,,,
EPP,73,Drinks - Alcoholic,Other Non-Fuel,Non Fuel,Non Fuel,440203,20500,90000,2000,696303,20500,90000,2000,114300,,,,204200,,,
EPP,74,Cigarettes & Tobacco,Other Non-Fuel,Non Fuel,Non Fuel,440203,20500,90000,2000,696303,20500,90000,2000,114300,,,,204200,,,
EPP,75,Specific C-Store,Other Non-Fuel,Non Fuel,Non Fuel,440203,20500,90000,2000,696303,20500,90000,2000,114300,,,,204200,,,
EPP,76,News & Magazines,Other Non-Fuel,Non Fuel,Non Fuel,440203,20500,90000,2000,696303,20500,90000,2000,114300,,,,204200,,,
EPP,77,Coal & Gas,Other Non-Fuel,Non Fuel,Non Fuel,440203,20500,90000,2000,696303,20500,90000,2000,114300,,,,204200,,,
EPP,78,Food (2),Other Non-Fuel,Non Fuel,Non Fuel,440203,20500,90000,2000,696303,20500,90000,2000,114300,,,,204200,,,
EPP,79,Shop Goods,Other Non-Fuel,Non Fuel,Non Fuel,440203,20500,90000,2000,696303,20500,90000,2000,114300,,,,204200,,,
EPP,80,Tunnels & Ferries,Other Non-Fuel,Non Fuel,Non Fuel,440203,20500,90000,2000,696303,20500,90000,2000,114300,,,,204200,,,
EPP,81,Tunnels,Tolls,Tolls,Tolls,440204,20500,90000,2000,696304,20500,90000,2000,114300,,,,204200,,,
EPP,82,Motorway Tolls,Tolls,Tolls,Tolls,440204,20500,90000,2000,696304,20500,90000,2000,114300,,,,204200,,,
EPP,83,Ferries,Other Non-Fuel,Non Fuel,Non Fuel,440203,20500,90000,2000,696303,20500,90000,2000,114300,,,,204200,,,
EPP,84,Road Tax,Other Non-Fuel,Non Fuel,Non Fuel,440203,20500,90000,2000,696303,20500,90000,2000,114300,,,,204200,,,
EPP,85,Trains,Other Non-Fuel,Non Fuel,Non Fuel,440203,20500,90000,2000,696303,20500,90000,2000,114300,,,,204200,,,
EPP,86,Mway Tolls Prepay,Tolls,Tolls,Tolls,440204,20500,90000,2000,696304,20500,90000,2000,114300,,,,204200,,,
EPP,87,Mway Tolls Postpay,Tolls,Tolls,Tolls,440204,20500,90000,2000,696304,20500,90000,2000,114300,,,,204200,,,
EPP,88,Country Spec.Tolls,Tolls,Tolls,Tolls,440204,20500,90000,2000,696304,20500,90000,2000,114300,,,,204200,,,
EPP,89,Country Spec.Tolls,Tolls,Tolls,Tolls,440204,20500,90000,2000,696304,20500,90000,2000,114300,,,,204200,,,
EPP,90,Vehicle Services,Other Non-Fuel,Non Fuel,Non Fuel,440203,20500,90000,2000,696303,20500,90000,2000,114300,,,,204200,,,
EPP,91,Car Hire,Other Non-Fuel,Non Fuel,Non Fuel,440203,20500,90000,2000,696303,20500,90000,2000,114300,,,,204200,,,
EPP,92,Hotels,Other Non-Fuel,Non Fuel,Non Fuel,440203,20500,90000,2000,696303,20500,90000,2000,114300,,,,204200,,,
EPP,93,Restaurants,Other Non-Fuel,Non Fuel,Non Fuel,440203,20500,90000,2000,696303,20500,90000,2000,114300,,,,204200,,,
EPP,94,Parking,Other Non-Fuel,Non Fuel,Non Fuel,440203,20500,90000,2000,696303,20500,90000,2000,114300,,,,204200,,,
EPP,95,Telecommunications,Other Non-Fuel,Non Fuel,Non Fuel,440203,20500,90000,2000,696303,20500,90000,2000,114300,,,,204200,,,
EPP,96,Specific Driver Serv,Other Non-Fuel,Non Fuel,Non Fuel,440203,20500,90000,2000,696303,20500,90000,2000,114300,,,,204200,,,
EPP,97,Voucher Fee,Other Non-Fuel,Non Fuel,Non Fuel,440203,20500,90000,2000,696303,20500,90000,2000,114300,,,,204200,,,
EPP,98,Cash,Other Non-Fuel,Non Fuel,Non Fuel,440203,20500,90000,2000,696303,20500,90000,2000,114300,,,,204200,,,
EPP,99,Discount Voucher,Other Non-Fuel,Non Fuel,Non Fuel,440203,20500,90000,2000,696303,20500,90000,2000,114300,,,,204200,,,
EPP,100,Reward Fee,Other Non-Fuel,Non Fuel,Non Fuel,440203,20500,90000,2000,696303,20500,90000,2000,114300,,,,204200,,,
EPP,101,NOT USED,Other Non-Fuel,Non Fuel,Non Fuel,440203,20500,90000,2000,696303,20500,90000,2000,114300,,,,204200,,,
EPP,102,NOT USED,Other Non-Fuel,Non Fuel,Non Fuel,440203,20500,90000,2000,696303,20500,90000,2000,114300,,,,204200,,,
EPP,103,Fees Adjustment,Other Non-Fuel,Non Fuel,Non Fuel,440203,20500,90000,2000,696303,20500,90000,2000,114300,,,,204200,,,
EPP,180,Terminal Tolls,Tolls,Tolls,Tolls,440204,20500,90000,2000,696304,20500,90000,2000,114300,,,,204200,,,
EPP,181,Terminal/Internet Tolls,Tolls,Tolls,Tolls,440204,20500,90000,2000,696304,20500,90000,2000,114300,,,,204200,,,
EPP,182,OBU Tolls,Tolls,Tolls,Tolls,440204,20500,90000,2000,696304,20500,90000,2000,114300,,,,204200,,,
EPP,183,TC Toll Services,Tolls,Tolls,Tolls,440204,20500,90000,2000,696304,20500,90000,2000,114300,,,,204200,,,
EPP,184,OBU Toll Pre-Pay,Tolls,Tolls,Tolls,440204,20500,90000,2000,696304,20500,90000,2000,114300,,,,204200,,,
EPP,185,Toll Exchange At,Tolls,Tolls,Tolls,440204,20500,90000,2000,696304,20500,90000,2000,114300,,,,204200,,,
EPP,186,TC Maut Reklamation,Tolls,Tolls,Tolls,440204,20500,90000,2000,696304,20500,90000,2000,114300,,,,204200,,,
EPP,187,TC Mautservice,Tolls,Tolls,Tolls,440204,20500,90000,2000,696304,20500,90000,2000,114300,,,,204200,,,
EPP,199,S1 2Nd Prodtest,Other Non-Fuel,Non Fuel,Non Fuel,440203,20500,90000,2000,696303,20500,90000,2000,114300,,,,204200,,,
EPP,240,Lubes & Antifreeze,Other Non-Fuel,Non Fuel,Non Fuel,440203,20500,90000,2000,696303,20500,90000,2000,114300,,,,204200,,,
EPP,280,CZ Toll Pre-Pay,Tolls,Tolls,Tolls,440204,20500,90000,2000,696304,20500,90000,2000,114300,,,,204200,,,
EPP,281,CZ Toll Post-Pay,Tolls,Tolls,Tolls,440204,20500,90000,2000,696304,20500,90000,2000,114300,,,,204200,,,
EPP,282,CZ OBU Deposit,Tolls,Tolls,Tolls,440204,20500,90000,2000,696304,20500,90000,2000,114300,,,,204200,,,
EPP,283,CZ Additional Toll,Tolls,Tolls,Tolls,440204,20500,90000,2000,696304,20500,90000,2000,114300,,,,204200,,,
EPP,284,CZ Service 0% VAT,Other Non-Fuel,Non Fuel,Non Fuel,440203,20500,90000,2000,696303,20500,90000,2000,114300,,,,204200,,,
EPP,285,CZ Service 5% VAT,Other Non-Fuel,Non Fuel,Non Fuel,440203,20500,90000,2000,696303,20500,90000,2000,114300,,,,204200,,,
EPP,286,CZ Service 19% VAT,Other Non-Fuel,Non Fuel,Non Fuel,440203,20500,90000,2000,696303,20500,90000,2000,114300,,,,204200,,,
EPP,333,Product For Retest,Other Non-Fuel,Non Fuel,Non Fuel,440203,20500,90000,2000,696303,20500,90000,2000,114300,,,,204200,,,
EPP,399,S1 Prodtest Icc Type,Other Non-Fuel,Non Fuel,Non Fuel,440203,20500,90000,2000,696303,20500,90000,2000,114300,,,,204200,,,
EPP,468,Surcharge Europenet,Other Non-Fuel,Non Fuel,Non Fuel,440203,20500,90000,2000,696303,20500,90000,2000,114300,,,,204200,,,
EPP,480,Polish Surch.,Other Non-Fuel,Non Fuel,Non Fuel,440203,20500,90000,2000,696303,20500,90000,2000,114300,,,,204200,,,
EPP,481,Surcharge Belarus,Other Non-Fuel,Surcharge,Surcharge,440203,20500,90000,2000,696303,20500,90000,2000,114300,,,,204200,,,
EPP,482,Surcharge Ukraine,Other Non-Fuel,Surcharge,Surcharge,440203,20500,90000,2000,696303,20500,90000,2000,114300,,,,204200,,,
EPP,483,Surcharge Turkey,Other Non-Fuel,Surcharge,Surcharge,440203,20500,90000,2000,696303,20500,90000,2000,114300,,,,204200,,,
EPP,484,Surcharge Bulgaria,Other Non-Fuel,Surcharge,Surcharge,440203,20500,90000,2000,696303,20500,90000,2000,114300,,,,204200,,,
EPP,485,Surcharge Rumania,Other Non-Fuel,Surcharge,Surcharge,440203,20500,90000,2000,696303,20500,90000,2000,114300,,,,204200,,,
EPP,486,Surcharge Lithuania,Other Non-Fuel,Surcharge,Surcharge,440203,20500,90000,2000,696303,20500,90000,2000,114300,,,,204200,,,
EPP,487,Surcharge Czechia,Other Non-Fuel,Surcharge,Surcharge,440203,20500,90000,2000,696303,20500,90000,2000,114300,,,,204200,,,
EPP,488,Surcharge Slovakia,Other Non-Fuel,Surcharge,Surcharge,440203,20500,90000,2000,696303,20500,90000,2000,114300,,,,204200,,,
EPP,490,Card Fee,Other Non-Fuel,Fee,Fee,440207,20500,90000,2000,696307,20500,90000,2000,114300,,,,204200,,,
EPP,491,Card Fee,Other Non-Fuel,Fee,Fee,440207,20500,90000,2000,696307,20500,90000,2000,114300,,,,204200,,,
EPP,492,Road Tax Surcharge,Other Non-Fuel,Surcharge,Surcharge,440203,20500,90000,2000,696303,20500,90000,2000,114300,,,,204200,,,
EPP,493,Road Tax Surcharge,Other Non-Fuel,Surcharge,Surcharge,440203,20500,90000,2000,696303,20500,90000,2000,114300,,,,204200,,,
EPP,494,CZ Pre-Pay Surcharge,Other Non-Fuel,Surcharge,Surcharge,440203,20500,90000,2000,696303,20500,90000,2000,114300,,,,204200,,,
EPP,495,CZ Post-Pay Surcharge,Other Non-Fuel,Surcharge,Surcharge,440203,20500,90000,2000,696303,20500,90000,2000,114300,,,,204200,,,
EPP,510,Invoice Charge,Other Non-Fuel,Fee,Fee,440209,20500,90000,2000,696309,20500,90000,2000,114300,,,,204200,,,
EPP,550,Card Fees,Other Non-Fuel,Fee,Fee,440207,20500,90000,2000,696307,20500,90000,2000,114300,,,,204200,,,
EPP,551,To be filled,Other Non-Fuel,Non Fuel,Non Fuel,440203,20500,90000,2000,696303,20500,90000,2000,114300,,,,204200,,,
EPP,552,To be filled,Other Non-Fuel,Non Fuel,Non Fuel,440203,20500,90000,2000,696303,20500,90000,2000,114300,,,,204200,,,
EPP,554,card fee 554,Other Non-Fuel,Fee,Fee,440207,20500,90000,2000,696307,20500,90000,2000,114300,,,,204200,,,
EPP,560,Credited Card Fees,Other Non-Fuel,Non Fuel,Non Fuel,440207,20500,90000,2000,696307,20500,90000,2000,114300,,,,204200,,,
EPP,840,Undefined,Other Non-Fuel,Non Fuel,Non Fuel,440203,20500,90000,2000,696303,20500,90000,2000,114300,,,,204200,,,
EPP,850,Undefined,Other Non-Fuel,Non Fuel,Non Fuel,440203,20500,90000,2000,696303,20500,90000,2000,114300,,,,204200,,,
EPP,880,Merchant Marketing Fees,Other Non-Fuel,Non Fuel,Non Fuel,440203,20500,90000,2000,696303,20500,90000,2000,114300,,,,204200,,,
EPP,900,Undefined,Other Non-Fuel,Non Fuel,Non Fuel,440203,20500,90000,2000,696303,20500,90000,2000,114300,,,,204200,,,
EPP,999,Unknown Product,Other Non-Fuel,Non Fuel,Non Fuel,440203,20500,90000,2000,696303,20500,90000,2000,114300,,,,204200,,,
