CLASS_NAME|TABLE_NAME|HEADER_ID|COLUMN_ID|COLUMN_NAME|MIN_POS|MAX_POS|COLUMN_SIZE
SRC|X_EPP           |H10|1|HEADER_RECORD_ID|1|3|3
SRC|X_EPP           |H10|2|SENDER_ID_CODE|4|6|3
SRC|X_EPP           |H10|3|FILLER_1|7|11|5
SRC|X_EPP           |H10|4|TRANSACTION_FILE_DATE|12|19|8
SRC|X_EPP           |H10|5|TRANSACTION_FILE_SEQ|20|25|6
SRC|X_EPP           |H10|6|TRANSACTION_FILE_STATUS|26|26|1
SRC|X_EPP           |H10|7|TRANSACTION_INDICATOR|27|27|1
SRC|X_EPP           |H10|8|FILLER_2|28|100|73
SRC|X_EPP           |H20|1|HEADER_RECORD_ID|1|3|3
SRC|X_EPP           |H20|2|SUPPORTING_AFFILIATE|4|7|4
SRC|X_EPP           |H20|3|COUNTRY_CODE|8|10|3
SRC|X_EPP           |H20|4|CURRENCY_CODE|11|13|3
SRC|X_EPP           |H20|5|DELIVERING_COMPANY_CODE|14|16|3
SRC|X_EPP           |H20|6|FILLER|17|100|84
SRC|X_EPP           |H30|1|HEADER_RECORD_ID|1|3|3
SRC|X_EPP           |H30|2|SITE_ID|4|12|9
SRC|X_EPP           |H30|3|FILLER_1|13|15|3
SRC|X_EPP           |H30|4|SITE_REGION|16|17|2
SRC|X_EPP           |H30|5|SITE_SHORT_ADDR|18|37|20
SRC|X_EPP           |H30|6|SITE_CATEGORY_IND|38|39|2
SRC|X_EPP           |H30|7|FILLER_2|40|100|61
SRC|X_EPP           |H40|1|HEADER_RECORD_ID|1|3|3
SRC|X_EPP           |H40|2|BATCH_IDENTIFIER|4|9|6
SRC|X_EPP           |H40|3|FILLER_1|10|13|4
SRC|X_EPP           |H40|4|BATCH_DATE|14|21|8
SRC|X_EPP           |H40|5|BATCH_SOURCE_TYPE|22|23|2
SRC|X_EPP           |H40|6|MERCHANT_NUMBER|24|32|9
SRC|X_EPP           |H40|7|INTERNAL_FEP_BATCH_IDT|33|38|6
SRC|X_EPP           |H40|8|INPUT_SOURCE_IDENTIFIER|39|50|12
SRC|X_EPP           |H40|9|FEP_RECEIVED_DATE|51|58|8
SRC|X_EPP           |H40|10|FILLER_2|59|100|42
SRC|X_EPP           |R50|1|HEADER_RECORD_ID|1|3|3
SRC|X_EPP           |R50|2|TRANSACTION_NUMBER|4|11|8
SRC|X_EPP           |R50|3|TRANSACTION_DEL_DATE|12|19|8
SRC|X_EPP           |R50|4|TRANSACTION_DEL_TIME|20|23|4
SRC|X_EPP           |R50|5|TRANSACTION_CODE|24|25|2
SRC|X_EPP           |R50|6|CARD_SCHEME_CODE|26|28|3
SRC|X_EPP           |R50|7|FILLER_1|29|29|1
SRC|X_EPP           |R50|8|PAN|30|48|19
SRC|X_EPP           |R50|9|FILLER_2|49|49|1
SRC|X_EPP           |R50|10|TRACK_2_Disc_data|50|74|25
SRC|X_EPP           |R50|11|RETAIL_VALIDATION|75|75|1
SRC|X_EPP           |R50|12|ISSUER_VALIDATION|76|76|1
SRC|X_EPP           |R50|13|FEP_TRANS_STATUS_IND|77|79|3
SRC|X_EPP           |R50|14|TOTAL_TRANS_VALUE|80|91|12
SRC|X_EPP           |R50|15|NUM_TRANS_LINES|92|93|2
SRC|X_EPP           |R50|16|ODOMETER_READING|94|100|7
SRC|X_EPP           |R50|17|FILLER_3|101|116|16
SRC|X_EPP           |R50|18|CARD_DATA_ENTRY_METH|117|117|1
SRC|X_EPP           |R50|19|DRIVER_VEHICLE_ID|118|124|7
SRC|X_EPP           |R50|20|FILLER_4|125|129|5
SRC|X_EPP           |R50|21|DRIVER_VEHICLE_IND|130|130|1
SRC|X_EPP           |R50|22|AUTHOURIZATION_METH|131|131|1
SRC|X_EPP           |R50|23|AUTHOURIZATION_CODE|132|139|8
SRC|X_EPP           |R50|24|APPROVAL_METH|140|141|2
SRC|X_EPP           |R50|25|CAR_REPLACE_IND|142|142|1
SRC|X_EPP           |R50|26|EQUIP_CONF_IND_POS|143|143|1
SRC|X_EPP           |R50|27|EQUIP_CONF_IND_FEP|144|144|1
SRC|X_EPP           |R50|28|SITE_ID|145|156|12
SRC|X_EPP           |R50|29|SITE_ADDR_NAME|157|176|20
SRC|X_EPP           |R50|30|NUM_PRODUCT_OCCURS|177|178|2
SRC|X_EPP           |R50|31|SITE_ID_ISSUER|179|194|16
SRC|X_EPP           |R50|32|INNET_REFERENCE|195|204|10
SRC|X_EPP           |R50|33|FILLER_5|206|240|35
SRC|X_EPP           |R50|34|TRANS_LINES_1|241|321|81
SRC|X_EPP           |R50|35|TRANS_LINE_NBR_1|241|242|2
SRC|X_EPP           |R50|36|PRODUCT_CODE_1|243|245|3
SRC|X_EPP           |R50|37|PRODUCT_CODE_DEL_COUNTRY_1|246|253|8
SRC|X_EPP           |R50|38|FILLER_TRANS_1|254|254|1
SRC|X_EPP           |R50|39|PRODUCT_QUANTITY_1|256|262|7
SRC|X_EPP           |R50|40|PRODUCT_VALUE_1|263|274|12
SRC|X_EPP           |R50|41|PRODUCT_VAT_CODE_1|275|276|2
SRC|X_EPP           |R50|42|PRODUCT_VAT_RATE_1|277|282|6
SRC|X_EPP           |R50|43|SERVICE_LEVEL_IND_1|283|283|1
SRC|X_EPP           |R50|44|PRODUCT_CODE_ISSUER_1|284|291|8
SRC|X_EPP           |R50|45|FILLER_TRANS_last_1|292|321|30
SRC|X_EPP           |R50|46|TRANS_LINES_2|321|402|82
SRC|X_EPP           |R50|47|TRANS_LINES_3|403|483|81
SRC|X_EPP           |R50|48|TRANS_LINES_4|484|564|81
SRC|X_EPP           |R50|49|TRANS_LINES_5|565|645|81
SRC|X_EPP           |R50|50|TRANS_LINES_6|646|726|81
SRC|X_EPP           |R50|51|TRANS_LINES_7|727|807|81
SRC|X_EPP           |R50|52|TRANS_LINES_8|808|888|81
SRC|X_EPP           |R50|53|TRANS_LINES_9|889|969|81
SRC|X_EPP           |R50|54|TRANS_LINES_10|970|1050|81
